<?xml version="1.0" encoding="UTF-8" standalone="no"?>
<!DOCTYPE svg PUBLIC "-//W3C//DTD SVG 1.1//EN"
 "http://www.w3.org/Graphics/SVG/1.1/DTD/svg11.dtd">
<!-- Generated by graphviz version 2.42.3 (0)
 -->
<!-- Title: perl6&#45;type&#45;graph Pages: 1 -->
<svg width="2179pt" height="1747pt"
 viewBox="0.00 0.00 2179.26 1747.02" xmlns="http://www.w3.org/2000/svg" xmlns:xlink="http://www.w3.org/1999/xlink">
<g id="graph0" class="graph" transform="scale(1 1) rotate(0) translate(4 1743.02)">
<title>perl6&#45;type&#45;graph</title>
<polygon fill="white" stroke="transparent" points="-4,4 -4,-1743.02 2175.26,-1743.02 2175.26,4 -4,4"/>
<!-- Metamodel::Stashing -->
<g id="node1" class="node">
<title>Metamodel::Stashing</title>
<g id="a_node1"><a xlink:href="/type/Metamodel::Stashing" xlink:title="Metamodel::Stashing">
<ellipse fill="none" stroke="#6666ff" cx="935.92" cy="-955.44" rx="105.88" ry="18"/>
<text text-anchor="middle" x="935.92" y="-951.74" font-family="FreeSans" font-size="14.00" fill="#6666ff">Metamodel::Stashing</text>
</a>
</g>
</g>
<!-- Mu -->
<g id="node2" class="node">
<title>Mu</title>
<g id="a_node2"><a xlink:href="/type/Mu" xlink:title="Mu">
<ellipse fill="none" stroke="#000000" cx="1506.44" cy="-1594.43" rx="27" ry="18"/>
<text text-anchor="middle" x="1506.44" y="-1590.73" font-family="FreeSans" font-size="14.00" fill="#000000">Mu</text>
</a>
</g>
</g>
<!-- Any -->
<g id="node3" class="node">
<title>Any</title>
<g id="a_node3"><a xlink:href="/type/Any" xlink:title="Any">
<ellipse fill="none" stroke="#000000" cx="1037.96" cy="-1112.56" rx="28.7" ry="18"/>
<text text-anchor="middle" x="1037.96" y="-1108.86" font-family="FreeSans" font-size="14.00" fill="#000000">Any</text>
</a>
</g>
</g>
<!-- Any&#45;&gt;Mu -->
<g id="edge1" class="edge">
<title>Any&#45;&gt;Mu</title>
<path fill="none" stroke="#000000" d="M1048.57,-1129.32C1056.66,-1142.12 1066.44,-1157.58 1066.44,-1157.58 1066.44,-1157.58 1394.52,-1483.31 1484.08,-1572.23"/>
<polygon fill="#000000" stroke="#000000" points="1481.73,-1574.83 1491.29,-1579.39 1486.66,-1569.86 1481.73,-1574.83"/>
</g>
<!-- Metamodel::Naming -->
<g id="node4" class="node">
<title>Metamodel::Naming</title>
<g id="a_node4"><a xlink:href="/type/Metamodel::Naming" xlink:title="Metamodel::Naming">
<ellipse fill="none" stroke="#6666ff" cx="907.4" cy="-1030.2" rx="101.28" ry="18"/>
<text text-anchor="middle" x="907.4" y="-1026.5" font-family="FreeSans" font-size="14.00" fill="#6666ff">Metamodel::Naming</text>
</a>
</g>
</g>
<!-- Metamodel::AttributeContainer -->
<g id="node5" class="node">
<title>Metamodel::AttributeContainer</title>
<g id="a_node5"><a xlink:href="/type/Metamodel::AttributeContainer" xlink:title="Metamodel::AttributeContainer">
<ellipse fill="none" stroke="#6666ff" cx="1780.43" cy="-880.87" rx="150.27" ry="18"/>
<text text-anchor="middle" x="1780.43" y="-877.17" font-family="FreeSans" font-size="14.00" fill="#6666ff">Metamodel::AttributeContainer</text>
</a>
</g>
</g>
<!-- Metamodel::MethodContainer -->
<g id="node6" class="node">
<title>Metamodel::MethodContainer</title>
<g id="a_node6"><a xlink:href="/type/Metamodel::MethodContainer" xlink:title="Metamodel::MethodContainer">
<ellipse fill="none" stroke="#6666ff" cx="1478.44" cy="-919.43" rx="143.77" ry="18"/>
<text text-anchor="middle" x="1478.44" y="-915.73" font-family="FreeSans" font-size="14.00" fill="#6666ff">Metamodel::MethodContainer</text>
</a>
</g>
</g>
<!-- Metamodel::MultiMethodContainer -->
<g id="node7" class="node">
<title>Metamodel::MultiMethodContainer</title>
<g id="a_node7"><a xlink:href="/type/Metamodel::MultiMethodContainer" xlink:title="Metamodel::MultiMethodContainer">
<ellipse fill="none" stroke="#6666ff" cx="1068.33" cy="-576.78" rx="165.97" ry="18"/>
<text text-anchor="middle" x="1068.33" y="-573.08" font-family="FreeSans" font-size="14.00" fill="#6666ff">Metamodel::MultiMethodContainer</text>
</a>
</g>
</g>
<!-- Metamodel::RoleContainer -->
<g id="node8" class="node">
<title>Metamodel::RoleContainer</title>
<g id="a_node8"><a xlink:href="/type/Metamodel::RoleContainer" xlink:title="Metamodel::RoleContainer">
<ellipse fill="none" stroke="#6666ff" cx="1694.84" cy="-739.87" rx="129.98" ry="18"/>
<text text-anchor="middle" x="1694.84" y="-736.17" font-family="FreeSans" font-size="14.00" fill="#6666ff">Metamodel::RoleContainer</text>
</a>
</g>
</g>
<!-- Metamodel::BaseType -->
<g id="node9" class="node">
<title>Metamodel::BaseType</title>
<g id="a_node9"><a xlink:href="/type/Metamodel::BaseType" xlink:title="Metamodel::BaseType">
<ellipse fill="none" stroke="#6666ff" cx="2062.07" cy="-567.69" rx="109.38" ry="18"/>
<text text-anchor="middle" x="2062.07" y="-563.99" font-family="FreeSans" font-size="14.00" fill="#6666ff">Metamodel::BaseType</text>
</a>
</g>
</g>
<!-- Metamodel::MROBasedMethodDispatch -->
<g id="node10" class="node">
<title>Metamodel::MROBasedMethodDispatch</title>
<g id="a_node10"><a xlink:href="/type/Metamodel::MROBasedMethodDispatch" xlink:title="Metamodel::MROBasedMethodDispatch">
<ellipse fill="none" stroke="#6666ff" cx="1055.4" cy="-238.94" rx="188.47" ry="18"/>
<text text-anchor="middle" x="1055.4" y="-235.24" font-family="FreeSans" font-size="14.00" fill="#6666ff">Metamodel::MROBasedMethodDispatch</text>
</a>
</g>
</g>
<!-- Metamodel::MROBasedTypeChecking -->
<g id="node11" class="node">
<title>Metamodel::MROBasedTypeChecking</title>
<g id="a_node11"><a xlink:href="/type/Metamodel::MROBasedTypeChecking" xlink:title="Metamodel::MROBasedTypeChecking">
<ellipse fill="none" stroke="#6666ff" cx="944.87" cy="-286.19" rx="178.97" ry="18"/>
<text text-anchor="middle" x="944.87" y="-282.49" font-family="FreeSans" font-size="14.00" fill="#6666ff">Metamodel::MROBasedTypeChecking</text>
</a>
</g>
</g>
<!-- Metamodel::BUILDPLAN -->
<g id="node12" class="node">
<title>Metamodel::BUILDPLAN</title>
<g id="a_node12"><a xlink:href="/type/Metamodel::BUILDPLAN" xlink:title="Metamodel::BUILDPLAN">
<ellipse fill="none" stroke="#6666ff" cx="1361.12" cy="-161.01" rx="118.08" ry="18"/>
<text text-anchor="middle" x="1361.12" y="-157.31" font-family="FreeSans" font-size="14.00" fill="#6666ff">Metamodel::BUILDPLAN</text>
</a>
</g>
</g>
<!-- Metamodel::BoolificationProtocol -->
<g id="node13" class="node">
<title>Metamodel::BoolificationProtocol</title>
<g id="a_node13"><a xlink:href="/type/Metamodel::BoolificationProtocol" xlink:title="Metamodel::BoolificationProtocol">
<ellipse fill="none" stroke="#6666ff" cx="1425.75" cy="-1113.61" rx="157.07" ry="18"/>
<text text-anchor="middle" x="1425.75" y="-1109.91" font-family="FreeSans" font-size="14.00" fill="#6666ff">Metamodel::BoolificationProtocol</text>
</a>
</g>
</g>
<!-- Metamodel::Mixins -->
<g id="node14" class="node">
<title>Metamodel::Mixins</title>
<g id="a_node14"><a xlink:href="/type/Metamodel::Mixins" xlink:title="Metamodel::Mixins">
<ellipse fill="none" stroke="#6666ff" cx="1477.49" cy="-231.97" rx="94.78" ry="18"/>
<text text-anchor="middle" x="1477.49" y="-228.27" font-family="FreeSans" font-size="14.00" fill="#6666ff">Metamodel::Mixins</text>
</a>
</g>
</g>
<!-- Metamodel::EnumHOW -->
<g id="node15" class="node">
<title>Metamodel::EnumHOW</title>
<g id="a_node15"><a xlink:href="/type/Metamodel::EnumHOW" xlink:title="Metamodel::EnumHOW">
<ellipse fill="none" stroke="#000000" cx="1402" cy="-664.85" rx="115.88" ry="18"/>
<text text-anchor="middle" x="1402" y="-661.15" font-family="FreeSans" font-size="14.00" fill="#000000">Metamodel::EnumHOW</text>
</a>
</g>
</g>
<!-- Metamodel::EnumHOW&#45;&gt;Metamodel::Stashing -->
<g id="edge10" class="edge">
<title>Metamodel::EnumHOW&#45;&gt;Metamodel::Stashing</title>
<path fill="none" stroke="#6666ff" d="M1373.89,-682.37C1293.52,-732.49 1062.7,-876.4 972.58,-932.58"/>
<polygon fill="#6666ff" stroke="#6666ff" points="970.69,-929.64 964.06,-937.9 974.4,-935.58 970.69,-929.64"/>
</g>
<!-- Metamodel::EnumHOW&#45;&gt;Any -->
<g id="edge2" class="edge">
<title>Metamodel::EnumHOW&#45;&gt;Any</title>
<path fill="none" stroke="#000000" d="M1387.28,-682.96C1330.17,-753.19 1123.19,-1007.74 1057.86,-1088.09"/>
<polygon fill="#000000" stroke="#000000" points="1054.89,-1086.19 1051.3,-1096.16 1060.32,-1090.61 1054.89,-1086.19"/>
</g>
<!-- Metamodel::EnumHOW&#45;&gt;Metamodel::Naming -->
<g id="edge9" class="edge">
<title>Metamodel::EnumHOW&#45;&gt;Metamodel::Naming</title>
<path fill="none" stroke="#6666ff" d="M1380.11,-682.59C1302.27,-745.69 1043.46,-955.48 1043.46,-955.48 1043.46,-955.48 987.56,-986.18 947.42,-1008.22"/>
<polygon fill="#6666ff" stroke="#6666ff" points="945.7,-1005.18 938.61,-1013.06 949.06,-1011.31 945.7,-1005.18"/>
</g>
<!-- Metamodel::EnumHOW&#45;&gt;Metamodel::AttributeContainer -->
<g id="edge11" class="edge">
<title>Metamodel::EnumHOW&#45;&gt;Metamodel::AttributeContainer</title>
<path fill="none" stroke="#6666ff" d="M1432.65,-682.34C1500.79,-721.24 1664.81,-814.87 1740.69,-858.19"/>
<polygon fill="#6666ff" stroke="#6666ff" points="1739.07,-861.29 1749.49,-863.21 1742.54,-855.21 1739.07,-861.29"/>
</g>
<!-- Metamodel::EnumHOW&#45;&gt;Metamodel::MethodContainer -->
<g id="edge12" class="edge">
<title>Metamodel::EnumHOW&#45;&gt;Metamodel::MethodContainer</title>
<path fill="none" stroke="#6666ff" d="M1407.5,-683.16C1420.72,-727.19 1454.37,-839.25 1470.09,-891.64"/>
<polygon fill="#6666ff" stroke="#6666ff" points="1466.76,-892.71 1472.99,-901.28 1473.47,-890.7 1466.76,-892.71"/>
</g>
<!-- Metamodel::EnumHOW&#45;&gt;Metamodel::MultiMethodContainer -->
<g id="edge13" class="edge">
<title>Metamodel::EnumHOW&#45;&gt;Metamodel::MultiMethodContainer</title>
<path fill="none" stroke="#6666ff" d="M1312.16,-653.42C1244.86,-644.86 1164.36,-634.62 1164.36,-634.62 1164.36,-634.62 1131.04,-620.75 1131.04,-620.75 1131.04,-620.75 1116.91,-610.84 1102.07,-600.44"/>
<polygon fill="#6666ff" stroke="#6666ff" points="1104.03,-597.54 1093.84,-594.66 1100.02,-603.27 1104.03,-597.54"/>
</g>
<!-- Metamodel::EnumHOW&#45;&gt;Metamodel::RoleContainer -->
<g id="edge14" class="edge">
<title>Metamodel::EnumHOW&#45;&gt;Metamodel::RoleContainer</title>
<path fill="none" stroke="#6666ff" d="M1462.32,-680.3C1508.92,-692.24 1573.57,-708.8 1622.87,-721.43"/>
<polygon fill="#6666ff" stroke="#6666ff" points="1622.28,-724.89 1632.83,-723.98 1624.02,-718.11 1622.28,-724.89"/>
</g>
<!-- Metamodel::EnumHOW&#45;&gt;Metamodel::BaseType -->
<g id="edge15" class="edge">
<title>Metamodel::EnumHOW&#45;&gt;Metamodel::BaseType</title>
<path fill="none" stroke="#6666ff" d="M1486.27,-652.45C1610.46,-634.17 1841.75,-600.12 1970.17,-581.22"/>
<polygon fill="#6666ff" stroke="#6666ff" points="1970.99,-584.64 1980.37,-579.72 1969.97,-577.71 1970.99,-584.64"/>
</g>
<!-- Metamodel::EnumHOW&#45;&gt;Metamodel::MROBasedMethodDispatch -->
<g id="edge16" class="edge">
<title>Metamodel::EnumHOW&#45;&gt;Metamodel::MROBasedMethodDispatch</title>
<path fill="none" stroke="#6666ff" d="M1388.84,-646.85C1333.83,-571.62 1125.2,-286.32 1125.2,-286.32 1125.2,-286.32 1107.74,-274.47 1090.28,-262.62"/>
<polygon fill="#6666ff" stroke="#6666ff" points="1092.03,-259.57 1081.79,-256.85 1088.09,-265.36 1092.03,-259.57"/>
</g>
<!-- Metamodel::EnumHOW&#45;&gt;Metamodel::MROBasedTypeChecking -->
<g id="edge17" class="edge">
<title>Metamodel::EnumHOW&#45;&gt;Metamodel::MROBasedTypeChecking</title>
<path fill="none" stroke="#6666ff" d="M1385.09,-646.96C1373.57,-634.79 1360.42,-620.87 1360.42,-620.87 1360.42,-620.87 1070.66,-387.5 975.06,-310.51"/>
<polygon fill="#6666ff" stroke="#6666ff" points="977.19,-307.73 967.21,-304.19 972.8,-313.18 977.19,-307.73"/>
</g>
<!-- Metamodel::EnumHOW&#45;&gt;Metamodel::BUILDPLAN -->
<g id="edge18" class="edge">
<title>Metamodel::EnumHOW&#45;&gt;Metamodel::BUILDPLAN</title>
<path fill="none" stroke="#6666ff" d="M1400.52,-646.62C1394.39,-571.01 1370.91,-281.72 1363.42,-189.46"/>
<polygon fill="#6666ff" stroke="#6666ff" points="1366.89,-188.9 1362.59,-179.21 1359.91,-189.46 1366.89,-188.9"/>
</g>
<!-- Metamodel::EnumHOW&#45;&gt;Metamodel::BoolificationProtocol -->
<g id="edge19" class="edge">
<title>Metamodel::EnumHOW&#45;&gt;Metamodel::BoolificationProtocol</title>
<path fill="none" stroke="#6666ff" d="M1397.05,-683.15C1381.28,-741.49 1333.2,-919.3 1333.2,-919.3 1333.2,-919.3 1387.09,-1032.43 1412.63,-1086.05"/>
<polygon fill="#6666ff" stroke="#6666ff" points="1409.59,-1087.81 1417.05,-1095.33 1415.91,-1084.8 1409.59,-1087.81"/>
</g>
<!-- Metamodel::EnumHOW&#45;&gt;Metamodel::Mixins -->
<g id="edge20" class="edge">
<title>Metamodel::EnumHOW&#45;&gt;Metamodel::Mixins</title>
<path fill="none" stroke="#6666ff" d="M1405.15,-646.8C1416.9,-579.42 1458.26,-342.27 1472.57,-260.18"/>
<polygon fill="#6666ff" stroke="#6666ff" points="1476.06,-260.55 1474.33,-250.09 1469.17,-259.34 1476.06,-260.55"/>
</g>
<!-- Metamodel::Documenting -->
<g id="node16" class="node">
<title>Metamodel::Documenting</title>
<g id="a_node16"><a xlink:href="/type/Metamodel::Documenting" xlink:title="Metamodel::Documenting">
<ellipse fill="none" stroke="#6666ff" cx="648.31" cy="-943.8" rx="126.98" ry="18"/>
<text text-anchor="middle" x="648.31" y="-940.1" font-family="FreeSans" font-size="14.00" fill="#6666ff">Metamodel::Documenting</text>
</a>
</g>
</g>
<!-- Metamodel::TypePretense -->
<g id="node17" class="node">
<title>Metamodel::TypePretense</title>
<g id="a_node17"><a xlink:href="/type/Metamodel::TypePretense" xlink:title="Metamodel::TypePretense">
<ellipse fill="none" stroke="#6666ff" cx="848.87" cy="-1639.91" rx="126.18" ry="18"/>
<text text-anchor="middle" x="848.87" y="-1636.21" font-family="FreeSans" font-size="14.00" fill="#6666ff">Metamodel::TypePretense</text>
</a>
</g>
</g>
<!-- Metamodel::MethodDelegation -->
<g id="node18" class="node">
<title>Metamodel::MethodDelegation</title>
<g id="a_node18"><a xlink:href="/type/Metamodel::MethodDelegation" xlink:title="Metamodel::MethodDelegation">
<ellipse fill="none" stroke="#6666ff" cx="148.19" cy="-1505.56" rx="148.37" ry="18"/>
<text text-anchor="middle" x="148.19" y="-1501.86" font-family="FreeSans" font-size="14.00" fill="#6666ff">Metamodel::MethodDelegation</text>
</a>
</g>
</g>
<!-- Metamodel::PackageHOW -->
<g id="node19" class="node">
<title>Metamodel::PackageHOW</title>
<g id="a_node19"><a xlink:href="/type/Metamodel::PackageHOW" xlink:title="Metamodel::PackageHOW">
<ellipse fill="none" stroke="#000000" cx="519.72" cy="-1282.84" rx="126.98" ry="18"/>
<text text-anchor="middle" x="519.72" y="-1279.14" font-family="FreeSans" font-size="14.00" fill="#000000">Metamodel::PackageHOW</text>
</a>
</g>
</g>
<!-- Metamodel::PackageHOW&#45;&gt;Metamodel::Stashing -->
<g id="edge23" class="edge">
<title>Metamodel::PackageHOW&#45;&gt;Metamodel::Stashing</title>
<path fill="none" stroke="#6666ff" d="M539.74,-1265.06C604.54,-1207.53 804.41,-1030.06 804.41,-1030.06 804.41,-1030.06 857.68,-999.84 896.42,-977.86"/>
<polygon fill="#6666ff" stroke="#6666ff" points="898.45,-980.73 905.42,-972.75 894.99,-974.64 898.45,-980.73"/>
</g>
<!-- Metamodel::PackageHOW&#45;&gt;Any -->
<g id="edge3" class="edge">
<title>Metamodel::PackageHOW&#45;&gt;Any</title>
<path fill="none" stroke="#000000" d="M570.36,-1266.2C675.07,-1231.79 913.15,-1153.57 1002.87,-1124.09"/>
<polygon fill="#000000" stroke="#000000" points="1004.16,-1127.35 1012.57,-1120.9 1001.97,-1120.7 1004.16,-1127.35"/>
</g>
<!-- Metamodel::PackageHOW&#45;&gt;Metamodel::Naming -->
<g id="edge21" class="edge">
<title>Metamodel::PackageHOW&#45;&gt;Metamodel::Naming</title>
<path fill="none" stroke="#6666ff" d="M546.98,-1265.07C615.55,-1220.39 795.16,-1103.34 871.86,-1053.37"/>
<polygon fill="#6666ff" stroke="#6666ff" points="874.22,-1056 880.68,-1047.61 870.4,-1050.14 874.22,-1056"/>
</g>
<!-- Metamodel::PackageHOW&#45;&gt;Metamodel::Documenting -->
<g id="edge22" class="edge">
<title>Metamodel::PackageHOW&#45;&gt;Metamodel::Documenting</title>
<path fill="none" stroke="#6666ff" d="M526.63,-1264.61C547.87,-1208.62 612.26,-1038.84 637.75,-971.63"/>
<polygon fill="#6666ff" stroke="#6666ff" points="641.08,-972.71 641.36,-962.12 634.54,-970.23 641.08,-972.71"/>
</g>
<!-- Metamodel::PackageHOW&#45;&gt;Metamodel::TypePretense -->
<g id="edge24" class="edge">
<title>Metamodel::PackageHOW&#45;&gt;Metamodel::TypePretense</title>
<path fill="none" stroke="#6666ff" d="M510.33,-1301.03C503.02,-1315.18 494.11,-1332.44 494.11,-1332.44 494.11,-1332.44 736.65,-1542.65 820.64,-1615.44"/>
<polygon fill="#6666ff" stroke="#6666ff" points="818.41,-1618.14 828.26,-1622.05 823,-1612.85 818.41,-1618.14"/>
</g>
<!-- Metamodel::PackageHOW&#45;&gt;Metamodel::MethodDelegation -->
<g id="edge25" class="edge">
<title>Metamodel::PackageHOW&#45;&gt;Metamodel::MethodDelegation</title>
<path fill="none" stroke="#6666ff" d="M490.26,-1300.5C423.46,-1340.54 260.57,-1438.19 186.26,-1482.73"/>
<polygon fill="#6666ff" stroke="#6666ff" points="184.43,-1479.75 177.65,-1487.9 188.03,-1485.76 184.43,-1479.75"/>
</g>
<!-- Metamodel::Versioning -->
<g id="node20" class="node">
<title>Metamodel::Versioning</title>
<g id="a_node20"><a xlink:href="/type/Metamodel::Versioning" xlink:title="Metamodel::Versioning">
<ellipse fill="none" stroke="#6666ff" cx="707.41" cy="-843.36" rx="114.28" ry="18"/>
<text text-anchor="middle" x="707.41" y="-839.66" font-family="FreeSans" font-size="14.00" fill="#6666ff">Metamodel::Versioning</text>
</a>
</g>
</g>
<!-- Metamodel::MultipleInheritance -->
<g id="node21" class="node">
<title>Metamodel::MultipleInheritance</title>
<g id="a_node21"><a xlink:href="/type/Metamodel::MultipleInheritance" xlink:title="Metamodel::MultipleInheritance">
<ellipse fill="none" stroke="#6666ff" cx="772.34" cy="-620.78" rx="153.27" ry="18"/>
<text text-anchor="middle" x="772.34" y="-617.08" font-family="FreeSans" font-size="14.00" fill="#6666ff">Metamodel::MultipleInheritance</text>
</a>
</g>
</g>
<!-- Metamodel::C3MRO -->
<g id="node22" class="node">
<title>Metamodel::C3MRO</title>
<g id="a_node22"><a xlink:href="/type/Metamodel::C3MRO" xlink:title="Metamodel::C3MRO">
<ellipse fill="none" stroke="#6666ff" cx="661.99" cy="-242.16" rx="100.18" ry="18"/>
<text text-anchor="middle" x="661.99" y="-238.46" font-family="FreeSans" font-size="14.00" fill="#6666ff">Metamodel::C3MRO</text>
</a>
</g>
</g>
<!-- Metamodel::NativeHOW -->
<g id="node23" class="node">
<title>Metamodel::NativeHOW</title>
<g id="a_node23"><a xlink:href="/type/Metamodel::NativeHOW" xlink:title="Metamodel::NativeHOW">
<ellipse fill="none" stroke="#000000" cx="492.65" cy="-637.25" rx="118.08" ry="18"/>
<text text-anchor="middle" x="492.65" y="-633.55" font-family="FreeSans" font-size="14.00" fill="#000000">Metamodel::NativeHOW</text>
</a>
</g>
</g>
<!-- Metamodel::NativeHOW&#45;&gt;Metamodel::Stashing -->
<g id="edge29" class="edge">
<title>Metamodel::NativeHOW&#45;&gt;Metamodel::Stashing</title>
<path fill="none" stroke="#6666ff" d="M520.85,-654.83C600.83,-704.71 823.39,-843.51 823.39,-843.51 823.39,-843.51 877.53,-897.37 910.7,-930.36"/>
<polygon fill="#6666ff" stroke="#6666ff" points="908.28,-932.89 917.84,-937.46 913.22,-927.93 908.28,-932.89"/>
</g>
<!-- Metamodel::NativeHOW&#45;&gt;Any -->
<g id="edge4" class="edge">
<title>Metamodel::NativeHOW&#45;&gt;Any</title>
<path fill="none" stroke="#000000" d="M501.42,-655.52C525.59,-705.93 591.42,-843.2 591.42,-843.2 591.42,-843.2 828.38,-955.4 828.38,-955.4 828.38,-955.4 859.72,-969.28 859.72,-969.28 859.72,-969.28 980.74,-1016.44 980.74,-1016.44 980.74,-1016.44 1010.39,-1030.34 1010.39,-1030.34 1010.39,-1030.34 1020.71,-1061.12 1028.72,-1085.01"/>
<polygon fill="#000000" stroke="#000000" points="1025.48,-1086.35 1031.98,-1094.72 1032.12,-1084.13 1025.48,-1086.35"/>
</g>
<!-- Metamodel::NativeHOW&#45;&gt;Metamodel::Naming -->
<g id="edge26" class="edge">
<title>Metamodel::NativeHOW&#45;&gt;Metamodel::Naming</title>
<path fill="none" stroke="#6666ff" d="M501.42,-655.52C525.59,-705.93 591.42,-843.2 591.42,-843.2 591.42,-843.2 776.64,-943.91 776.64,-943.91 776.64,-943.91 833.76,-981.61 872.5,-1007.17"/>
<polygon fill="#6666ff" stroke="#6666ff" points="870.67,-1010.15 880.94,-1012.74 874.52,-1004.31 870.67,-1010.15"/>
</g>
<!-- Metamodel::NativeHOW&#45;&gt;Metamodel::MROBasedMethodDispatch -->
<g id="edge32" class="edge">
<title>Metamodel::NativeHOW&#45;&gt;Metamodel::MROBasedMethodDispatch</title>
<path fill="none" stroke="#6666ff" d="M506.51,-619.35C561.91,-547.78 764.54,-286.06 764.54,-286.06 764.54,-286.06 818.2,-272.24 818.2,-272.24 818.2,-272.24 879.15,-263.68 939.26,-255.24"/>
<polygon fill="#6666ff" stroke="#6666ff" points="939.87,-258.69 949.28,-253.84 938.89,-251.76 939.87,-258.69"/>
</g>
<!-- Metamodel::NativeHOW&#45;&gt;Metamodel::MROBasedTypeChecking -->
<g id="edge33" class="edge">
<title>Metamodel::NativeHOW&#45;&gt;Metamodel::MROBasedTypeChecking</title>
<path fill="none" stroke="#6666ff" d="M515.7,-619.36C590.77,-561.08 828.36,-376.64 913.85,-310.27"/>
<polygon fill="#6666ff" stroke="#6666ff" points="916.12,-312.94 921.87,-304.05 911.82,-307.41 916.12,-312.94"/>
</g>
<!-- Metamodel::NativeHOW&#45;&gt;Metamodel::Documenting -->
<g id="edge27" class="edge">
<title>Metamodel::NativeHOW&#45;&gt;Metamodel::Documenting</title>
<path fill="none" stroke="#6666ff" d="M501.42,-655.52C525.59,-705.93 591.42,-843.2 591.42,-843.2 591.42,-843.2 616.35,-887.28 633.2,-917.09"/>
<polygon fill="#6666ff" stroke="#6666ff" points="630.17,-918.83 638.14,-925.81 636.26,-915.39 630.17,-918.83"/>
</g>
<!-- Metamodel::NativeHOW&#45;&gt;Metamodel::Versioning -->
<g id="edge28" class="edge">
<title>Metamodel::NativeHOW&#45;&gt;Metamodel::Versioning</title>
<path fill="none" stroke="#6666ff" d="M511.33,-655.18C549.65,-691.95 637.21,-775.98 681.18,-818.19"/>
<polygon fill="#6666ff" stroke="#6666ff" points="678.98,-820.92 688.61,-825.32 683.82,-815.87 678.98,-820.92"/>
</g>
<!-- Metamodel::NativeHOW&#45;&gt;Metamodel::MultipleInheritance -->
<g id="edge30" class="edge">
<title>Metamodel::NativeHOW&#45;&gt;Metamodel::MultipleInheritance</title>
<path fill="none" stroke="#6666ff" d="M603.19,-630.74C610.17,-630.33 617.25,-629.91 624.35,-629.49"/>
<polygon fill="#6666ff" stroke="#6666ff" points="625,-632.96 634.78,-628.88 624.59,-625.98 625,-632.96"/>
</g>
<!-- Metamodel::NativeHOW&#45;&gt;Metamodel::C3MRO -->
<g id="edge31" class="edge">
<title>Metamodel::NativeHOW&#45;&gt;Metamodel::C3MRO</title>
<path fill="none" stroke="#6666ff" d="M500.37,-619.25C527.37,-556.25 617.7,-345.48 650.21,-269.64"/>
<polygon fill="#6666ff" stroke="#6666ff" points="653.5,-270.83 654.23,-260.26 647.07,-268.08 653.5,-270.83"/>
</g>
<!-- Metamodel::PrivateMethodContainer -->
<g id="node24" class="node">
<title>Metamodel::PrivateMethodContainer</title>
<g id="a_node24"><a xlink:href="/type/Metamodel::PrivateMethodContainer" xlink:title="Metamodel::PrivateMethodContainer">
<ellipse fill="none" stroke="#6666ff" cx="1725.02" cy="-1069.58" rx="174.67" ry="18"/>
<text text-anchor="middle" x="1725.02" y="-1065.88" font-family="FreeSans" font-size="14.00" fill="#6666ff">Metamodel::PrivateMethodContainer</text>
</a>
</g>
</g>
<!-- Metamodel::RolePunning -->
<g id="node25" class="node">
<title>Metamodel::RolePunning</title>
<g id="a_node25"><a xlink:href="/type/Metamodel::RolePunning" xlink:title="Metamodel::RolePunning">
<ellipse fill="none" stroke="#6666ff" cx="1365.74" cy="-1721.02" rx="122.68" ry="18"/>
<text text-anchor="middle" x="1365.74" y="-1717.32" font-family="FreeSans" font-size="14.00" fill="#6666ff">Metamodel::RolePunning</text>
</a>
</g>
</g>
<!-- Metamodel::ParametricRoleHOW -->
<g id="node26" class="node">
<title>Metamodel::ParametricRoleHOW</title>
<g id="a_node26"><a xlink:href="/type/Metamodel::ParametricRoleHOW" xlink:title="Metamodel::ParametricRoleHOW">
<ellipse fill="none" stroke="#000000" cx="1225.33" cy="-1157.65" rx="157.07" ry="18"/>
<text text-anchor="middle" x="1225.33" y="-1153.95" font-family="FreeSans" font-size="14.00" fill="#000000">Metamodel::ParametricRoleHOW</text>
</a>
</g>
</g>
<!-- Metamodel::ParametricRoleHOW&#45;&gt;Metamodel::Stashing -->
<g id="edge43" class="edge">
<title>Metamodel::ParametricRoleHOW&#45;&gt;Metamodel::Stashing</title>
<path fill="none" stroke="#6666ff" d="M1199.9,-1139.88C1147.68,-1103.4 1028.37,-1020.03 969.72,-979.06"/>
<polygon fill="#6666ff" stroke="#6666ff" points="971.39,-975.96 961.19,-973.1 967.38,-981.7 971.39,-975.96"/>
</g>
<!-- Metamodel::ParametricRoleHOW&#45;&gt;Any -->
<g id="edge5" class="edge">
<title>Metamodel::ParametricRoleHOW&#45;&gt;Any</title>
<path fill="none" stroke="#000000" d="M1157.68,-1141.37C1129.74,-1134.65 1098.44,-1127.12 1074.86,-1121.44"/>
<polygon fill="#000000" stroke="#000000" points="1075.47,-1117.99 1064.93,-1119.05 1073.83,-1124.79 1075.47,-1117.99"/>
</g>
<!-- Metamodel::ParametricRoleHOW&#45;&gt;Metamodel::Naming -->
<g id="edge34" class="edge">
<title>Metamodel::ParametricRoleHOW&#45;&gt;Metamodel::Naming</title>
<path fill="none" stroke="#6666ff" d="M1182.12,-1140.33C1123.78,-1116.94 1020.01,-1075.34 958.07,-1050.51"/>
<polygon fill="#6666ff" stroke="#6666ff" points="959.08,-1047.15 948.5,-1046.68 956.48,-1053.65 959.08,-1047.15"/>
</g>
<!-- Metamodel::ParametricRoleHOW&#45;&gt;Metamodel::AttributeContainer -->
<g id="edge40" class="edge">
<title>Metamodel::ParametricRoleHOW&#45;&gt;Metamodel::AttributeContainer</title>
<path fill="none" stroke="#6666ff" d="M1242.22,-1139.72C1253.73,-1127.52 1266.87,-1113.57 1266.87,-1113.57 1266.87,-1113.57 1605.25,-960.25 1732.67,-902.51"/>
<polygon fill="#6666ff" stroke="#6666ff" points="1734.16,-905.67 1741.83,-898.36 1731.27,-899.3 1734.16,-905.67"/>
</g>
<!-- Metamodel::ParametricRoleHOW&#45;&gt;Metamodel::MethodContainer -->
<g id="edge37" class="edge">
<title>Metamodel::ParametricRoleHOW&#45;&gt;Metamodel::MethodContainer</title>
<path fill="none" stroke="#6666ff" d="M1242.22,-1139.72C1253.73,-1127.52 1266.87,-1113.57 1266.87,-1113.57 1266.87,-1113.57 1394.27,-996.66 1451.35,-944.29"/>
<polygon fill="#6666ff" stroke="#6666ff" points="1453.91,-946.68 1458.91,-937.34 1449.18,-941.53 1453.91,-946.68"/>
</g>
<!-- Metamodel::ParametricRoleHOW&#45;&gt;Metamodel::MultiMethodContainer -->
<g id="edge39" class="edge">
<title>Metamodel::ParametricRoleHOW&#45;&gt;Metamodel::MultiMethodContainer</title>
<path fill="none" stroke="#6666ff" d="M1220.46,-1139.63C1197.89,-1056.12 1103.41,-706.58 1075.89,-604.74"/>
<polygon fill="#6666ff" stroke="#6666ff" points="1079.21,-603.62 1073.22,-594.88 1072.45,-605.45 1079.21,-603.62"/>
</g>
<!-- Metamodel::ParametricRoleHOW&#45;&gt;Metamodel::RoleContainer -->
<g id="edge41" class="edge">
<title>Metamodel::ParametricRoleHOW&#45;&gt;Metamodel::RoleContainer</title>
<path fill="none" stroke="#6666ff" d="M1242.22,-1139.72C1253.73,-1127.52 1266.87,-1113.57 1266.87,-1113.57 1266.87,-1113.57 1623.67,-919.56 1623.67,-919.56 1623.67,-919.56 1628.7,-880.72 1628.7,-880.72 1628.7,-880.72 1662.78,-808.14 1682.02,-767.18"/>
<polygon fill="#6666ff" stroke="#6666ff" points="1685.25,-768.53 1686.33,-757.99 1678.91,-765.55 1685.25,-768.53"/>
</g>
<!-- Metamodel::ParametricRoleHOW&#45;&gt;Metamodel::Documenting -->
<g id="edge35" class="edge">
<title>Metamodel::ParametricRoleHOW&#45;&gt;Metamodel::Documenting</title>
<path fill="none" stroke="#6666ff" d="M1176.88,-1140.45C1127.9,-1123.06 1059.37,-1098.74 1059.37,-1098.74 1059.37,-1098.74 1038.04,-1092.96 1038.04,-1092.96 1038.04,-1092.96 834.06,-1043.96 834.06,-1043.96 834.06,-1043.96 804.41,-1030.06 804.41,-1030.06 804.41,-1030.06 735.06,-991.74 688.81,-966.18"/>
<polygon fill="#6666ff" stroke="#6666ff" points="690.34,-963.03 679.9,-961.26 686.96,-969.16 690.34,-963.03"/>
</g>
<!-- Metamodel::ParametricRoleHOW&#45;&gt;Metamodel::TypePretense -->
<g id="edge44" class="edge">
<title>Metamodel::ParametricRoleHOW&#45;&gt;Metamodel::TypePretense</title>
<path fill="none" stroke="#6666ff" d="M1209.11,-1175.84C1146.46,-1246.13 923.71,-1496.05 923.71,-1496.05 923.71,-1496.05 884.79,-1570.87 863.08,-1612.59"/>
<polygon fill="#6666ff" stroke="#6666ff" points="859.86,-1611.2 858.35,-1621.69 866.07,-1614.43 859.86,-1611.2"/>
</g>
<!-- Metamodel::ParametricRoleHOW&#45;&gt;Metamodel::Versioning -->
<g id="edge36" class="edge">
<title>Metamodel::ParametricRoleHOW&#45;&gt;Metamodel::Versioning</title>
<path fill="none" stroke="#6666ff" d="M1195.44,-1139.95C1136.38,-1104.97 1010.39,-1030.34 1010.39,-1030.34 1010.39,-1030.34 980.74,-1016.44 980.74,-1016.44 980.74,-1016.44 859.72,-969.28 859.72,-969.28 859.72,-969.28 828.38,-955.4 828.38,-955.4 828.38,-955.4 769.87,-901.21 734.23,-868.2"/>
<polygon fill="#6666ff" stroke="#6666ff" points="736.29,-865.34 726.57,-861.11 731.53,-870.47 736.29,-865.34"/>
</g>
<!-- Metamodel::ParametricRoleHOW&#45;&gt;Metamodel::MultipleInheritance -->
<g id="edge42" class="edge">
<title>Metamodel::ParametricRoleHOW&#45;&gt;Metamodel::MultipleInheritance</title>
<path fill="none" stroke="#6666ff" d="M1210,-1139.48C1142.71,-1059.74 873.42,-740.57 794.3,-646.81"/>
<polygon fill="#6666ff" stroke="#6666ff" points="796.79,-644.33 787.67,-638.95 791.44,-648.85 796.79,-644.33"/>
</g>
<!-- Metamodel::ParametricRoleHOW&#45;&gt;Metamodel::PrivateMethodContainer -->
<g id="edge38" class="edge">
<title>Metamodel::ParametricRoleHOW&#45;&gt;Metamodel::PrivateMethodContainer</title>
<path fill="none" stroke="#6666ff" d="M1345.72,-1146.03C1433.77,-1137.54 1537.88,-1127.5 1537.88,-1127.5 1537.88,-1127.5 1584.64,-1113.65 1584.64,-1113.65 1584.64,-1113.65 1623.65,-1101.4 1660.54,-1089.82"/>
<polygon fill="#6666ff" stroke="#6666ff" points="1661.85,-1093.08 1670.34,-1086.74 1659.76,-1086.4 1661.85,-1093.08"/>
</g>
<!-- Metamodel::ParametricRoleHOW&#45;&gt;Metamodel::RolePunning -->
<g id="edge45" class="edge">
<title>Metamodel::ParametricRoleHOW&#45;&gt;Metamodel::RolePunning</title>
<path fill="none" stroke="#6666ff" d="M1229.84,-1175.75C1250.25,-1257.62 1333.95,-1593.47 1358.77,-1693.06"/>
<polygon fill="#6666ff" stroke="#6666ff" points="1355.43,-1694.13 1361.25,-1702.99 1362.22,-1692.44 1355.43,-1694.13"/>
</g>
<!-- Metamodel::Finalization -->
<g id="node27" class="node">
<title>Metamodel::Finalization</title>
<g id="a_node27"><a xlink:href="/type/Metamodel::Finalization" xlink:title="Metamodel::Finalization">
<ellipse fill="none" stroke="#6666ff" cx="1697.4" cy="-219.45" rx="116.98" ry="18"/>
<text text-anchor="middle" x="1697.4" y="-215.75" font-family="FreeSans" font-size="14.00" fill="#6666ff">Metamodel::Finalization</text>
</a>
</g>
</g>
<!-- Metamodel::DefaultParent -->
<g id="node28" class="node">
<title>Metamodel::DefaultParent</title>
<g id="a_node28"><a xlink:href="/type/Metamodel::DefaultParent" xlink:title="Metamodel::DefaultParent">
<ellipse fill="none" stroke="#6666ff" cx="1791.76" cy="-415.78" rx="128.08" ry="18"/>
<text text-anchor="middle" x="1791.76" y="-412.08" font-family="FreeSans" font-size="14.00" fill="#6666ff">Metamodel::DefaultParent</text>
</a>
</g>
</g>
<!-- Metamodel::Trusting -->
<g id="node29" class="node">
<title>Metamodel::Trusting</title>
<g id="a_node29"><a xlink:href="/type/Metamodel::Trusting" xlink:title="Metamodel::Trusting">
<ellipse fill="none" stroke="#6666ff" cx="1171.71" cy="-18" rx="102.88" ry="18"/>
<text text-anchor="middle" x="1171.71" y="-14.3" font-family="FreeSans" font-size="14.00" fill="#6666ff">Metamodel::Trusting</text>
</a>
</g>
</g>
<!-- Metamodel::ClassHOW -->
<g id="node30" class="node">
<title>Metamodel::ClassHOW</title>
<g id="a_node30"><a xlink:href="/type/Metamodel::ClassHOW" xlink:title="Metamodel::ClassHOW">
<ellipse fill="none" stroke="#000000" cx="1245.73" cy="-620.81" rx="113.18" ry="18"/>
<text text-anchor="middle" x="1245.73" y="-617.11" font-family="FreeSans" font-size="14.00" fill="#000000">Metamodel::ClassHOW</text>
</a>
</g>
</g>
<!-- Metamodel::ClassHOW&#45;&gt;Metamodel::Stashing -->
<g id="edge49" class="edge">
<title>Metamodel::ClassHOW&#45;&gt;Metamodel::Stashing</title>
<path fill="none" stroke="#6666ff" d="M1229.07,-638.8C1177.38,-694.64 1019.57,-865.09 959.49,-929.99"/>
<polygon fill="#6666ff" stroke="#6666ff" points="956.88,-927.65 952.66,-937.36 962.02,-932.4 956.88,-927.65"/>
</g>
<!-- Metamodel::ClassHOW&#45;&gt;Any -->
<g id="edge6" class="edge">
<title>Metamodel::ClassHOW&#45;&gt;Any</title>
<path fill="none" stroke="#000000" d="M1238.09,-638.89C1206.61,-713.39 1086.88,-996.76 1049.31,-1085.69"/>
<polygon fill="#000000" stroke="#000000" points="1046.01,-1084.51 1045.34,-1095.09 1052.46,-1087.24 1046.01,-1084.51"/>
</g>
<!-- Metamodel::ClassHOW&#45;&gt;Metamodel::Naming -->
<g id="edge46" class="edge">
<title>Metamodel::ClassHOW&#45;&gt;Metamodel::Naming</title>
<path fill="none" stroke="#6666ff" d="M1234.85,-638.8C1192.84,-708.32 1043.46,-955.48 1043.46,-955.48 1043.46,-955.48 987.56,-986.18 947.42,-1008.22"/>
<polygon fill="#6666ff" stroke="#6666ff" points="945.7,-1005.18 938.61,-1013.06 949.06,-1011.31 945.7,-1005.18"/>
</g>
<!-- Metamodel::ClassHOW&#45;&gt;Metamodel::AttributeContainer -->
<g id="edge50" class="edge">
<title>Metamodel::ClassHOW&#45;&gt;Metamodel::AttributeContainer</title>
<path fill="none" stroke="#6666ff" d="M1261.58,-638.72C1272.38,-650.9 1284.71,-664.83 1284.71,-664.83 1284.71,-664.83 1605.34,-804.57 1730.88,-859.27"/>
<polygon fill="#6666ff" stroke="#6666ff" points="1729.72,-862.59 1740.28,-863.37 1732.51,-856.17 1729.72,-862.59"/>
</g>
<!-- Metamodel::ClassHOW&#45;&gt;Metamodel::MethodContainer -->
<g id="edge52" class="edge">
<title>Metamodel::ClassHOW&#45;&gt;Metamodel::MethodContainer</title>
<path fill="none" stroke="#6666ff" d="M1259.93,-639.04C1299.63,-689.97 1411.8,-833.92 1458.08,-893.31"/>
<polygon fill="#6666ff" stroke="#6666ff" points="1455.51,-895.7 1464.42,-901.44 1461.03,-891.4 1455.51,-895.7"/>
</g>
<!-- Metamodel::ClassHOW&#45;&gt;Metamodel::MultiMethodContainer -->
<g id="edge54" class="edge">
<title>Metamodel::ClassHOW&#45;&gt;Metamodel::MultiMethodContainer</title>
<path fill="none" stroke="#6666ff" d="M1184.18,-605.53C1171.5,-602.39 1158,-599.04 1144.87,-595.78"/>
<polygon fill="#6666ff" stroke="#6666ff" points="1145.46,-592.32 1134.91,-593.31 1143.78,-599.11 1145.46,-592.32"/>
</g>
<!-- Metamodel::ClassHOW&#45;&gt;Metamodel::RoleContainer -->
<g id="edge55" class="edge">
<title>Metamodel::ClassHOW&#45;&gt;Metamodel::RoleContainer</title>
<path fill="none" stroke="#6666ff" d="M1334.48,-632.01C1402.58,-640.6 1485,-651 1485,-651 1485,-651 1519.29,-664.87 1519.29,-664.87 1519.29,-664.87 1593.25,-696.46 1645.16,-718.64"/>
<polygon fill="#6666ff" stroke="#6666ff" points="1644,-721.95 1654.57,-722.66 1646.75,-715.51 1644,-721.95"/>
</g>
<!-- Metamodel::ClassHOW&#45;&gt;Metamodel::MROBasedMethodDispatch -->
<g id="edge59" class="edge">
<title>Metamodel::ClassHOW&#45;&gt;Metamodel::MROBasedMethodDispatch</title>
<path fill="none" stroke="#6666ff" d="M1241.58,-602.7C1238.8,-590.6 1235.67,-576.9 1235.67,-576.9 1235.67,-576.9 1125.2,-286.32 1125.2,-286.32 1125.2,-286.32 1107.74,-274.47 1090.28,-262.62"/>
<polygon fill="#6666ff" stroke="#6666ff" points="1092.03,-259.57 1081.79,-256.85 1088.09,-265.36 1092.03,-259.57"/>
</g>
<!-- Metamodel::ClassHOW&#45;&gt;Metamodel::MROBasedTypeChecking -->
<g id="edge60" class="edge">
<title>Metamodel::ClassHOW&#45;&gt;Metamodel::MROBasedTypeChecking</title>
<path fill="none" stroke="#6666ff" d="M1241.58,-602.7C1238.8,-590.6 1235.67,-576.9 1235.67,-576.9 1235.67,-576.9 1041.16,-382.45 970.3,-311.61"/>
<polygon fill="#6666ff" stroke="#6666ff" points="972.61,-308.97 963.06,-304.38 967.66,-313.92 972.61,-308.97"/>
</g>
<!-- Metamodel::ClassHOW&#45;&gt;Metamodel::BUILDPLAN -->
<g id="edge62" class="edge">
<title>Metamodel::ClassHOW&#45;&gt;Metamodel::BUILDPLAN</title>
<path fill="none" stroke="#6666ff" d="M1250.25,-602.78C1267.93,-532.34 1332.45,-275.25 1354.03,-189.25"/>
<polygon fill="#6666ff" stroke="#6666ff" points="1357.46,-189.96 1356.5,-179.41 1350.67,-188.25 1357.46,-189.96"/>
</g>
<!-- Metamodel::ClassHOW&#45;&gt;Metamodel::BoolificationProtocol -->
<g id="edge64" class="edge">
<title>Metamodel::ClassHOW&#45;&gt;Metamodel::BoolificationProtocol</title>
<path fill="none" stroke="#6666ff" d="M1251.07,-639.03C1270.06,-703.84 1333.2,-919.3 1333.2,-919.3 1333.2,-919.3 1387.09,-1032.43 1412.63,-1086.05"/>
<polygon fill="#6666ff" stroke="#6666ff" points="1409.59,-1087.81 1417.05,-1095.33 1415.91,-1084.8 1409.59,-1087.81"/>
</g>
<!-- Metamodel::ClassHOW&#45;&gt;Metamodel::Mixins -->
<g id="edge63" class="edge">
<title>Metamodel::ClassHOW&#45;&gt;Metamodel::Mixins</title>
<path fill="none" stroke="#6666ff" d="M1256.44,-602.83C1293.58,-540.53 1416.94,-333.56 1461.37,-259.02"/>
<polygon fill="#6666ff" stroke="#6666ff" points="1464.51,-260.58 1466.63,-250.2 1458.5,-257 1464.51,-260.58"/>
</g>
<!-- Metamodel::ClassHOW&#45;&gt;Metamodel::Documenting -->
<g id="edge47" class="edge">
<title>Metamodel::ClassHOW&#45;&gt;Metamodel::Documenting</title>
<path fill="none" stroke="#6666ff" d="M1213.61,-638.18C1112.71,-692.72 802.17,-860.61 689.6,-921.47"/>
<polygon fill="#6666ff" stroke="#6666ff" points="687.72,-918.51 680.58,-926.35 691.05,-924.67 687.72,-918.51"/>
</g>
<!-- Metamodel::ClassHOW&#45;&gt;Metamodel::Versioning -->
<g id="edge48" class="edge">
<title>Metamodel::ClassHOW&#45;&gt;Metamodel::Versioning</title>
<path fill="none" stroke="#6666ff" d="M1204.82,-637.72C1107.75,-677.85 863.67,-778.75 757.75,-822.54"/>
<polygon fill="#6666ff" stroke="#6666ff" points="756.15,-819.42 748.25,-826.47 758.83,-825.89 756.15,-819.42"/>
</g>
<!-- Metamodel::ClassHOW&#45;&gt;Metamodel::MultipleInheritance -->
<g id="edge56" class="edge">
<title>Metamodel::ClassHOW&#45;&gt;Metamodel::MultipleInheritance</title>
<path fill="none" stroke="#6666ff" d="M1132.34,-620.8C1073.66,-620.8 1000.96,-620.8 936.28,-620.79"/>
<polygon fill="#6666ff" stroke="#6666ff" points="935.97,-617.29 925.97,-620.79 935.97,-624.29 935.97,-617.29"/>
</g>
<!-- Metamodel::ClassHOW&#45;&gt;Metamodel::C3MRO -->
<g id="edge58" class="edge">
<title>Metamodel::ClassHOW&#45;&gt;Metamodel::C3MRO</title>
<path fill="none" stroke="#6666ff" d="M1241.58,-602.7C1238.8,-590.6 1235.67,-576.9 1235.67,-576.9 1235.67,-576.9 828.86,-339.53 700.38,-264.56"/>
<polygon fill="#6666ff" stroke="#6666ff" points="702.02,-261.47 691.62,-259.45 698.5,-267.51 702.02,-261.47"/>
</g>
<!-- Metamodel::ClassHOW&#45;&gt;Metamodel::PrivateMethodContainer -->
<g id="edge53" class="edge">
<title>Metamodel::ClassHOW&#45;&gt;Metamodel::PrivateMethodContainer</title>
<path fill="none" stroke="#6666ff" d="M1261.58,-638.72C1272.38,-650.9 1284.71,-664.83 1284.71,-664.83 1284.71,-664.83 1623.67,-919.56 1623.67,-919.56 1623.67,-919.56 1678.09,-1000.1 1707.17,-1043.16"/>
<polygon fill="#6666ff" stroke="#6666ff" points="1704.3,-1045.16 1712.8,-1051.48 1710.1,-1041.24 1704.3,-1045.16"/>
</g>
<!-- Metamodel::ClassHOW&#45;&gt;Metamodel::Finalization -->
<g id="edge51" class="edge">
<title>Metamodel::ClassHOW&#45;&gt;Metamodel::Finalization</title>
<path fill="none" stroke="#6666ff" d="M1265.72,-603.05C1338.08,-538.75 1586.44,-318.05 1669.84,-243.94"/>
<polygon fill="#6666ff" stroke="#6666ff" points="1672.23,-246.49 1677.38,-237.23 1667.58,-241.26 1672.23,-246.49"/>
</g>
<!-- Metamodel::ClassHOW&#45;&gt;Metamodel::DefaultParent -->
<g id="edge57" class="edge">
<title>Metamodel::ClassHOW&#45;&gt;Metamodel::DefaultParent</title>
<path fill="none" stroke="#6666ff" d="M1289.95,-604.21C1389.15,-566.96 1629.17,-476.83 1737.32,-436.22"/>
<polygon fill="#6666ff" stroke="#6666ff" points="1738.61,-439.48 1746.75,-432.68 1736.15,-432.92 1738.61,-439.48"/>
</g>
<!-- Metamodel::ClassHOW&#45;&gt;Metamodel::Trusting -->
<g id="edge61" class="edge">
<title>Metamodel::ClassHOW&#45;&gt;Metamodel::Trusting</title>
<path fill="none" stroke="#6666ff" d="M1245.71,-602.65C1245.66,-526.78 1245.48,-239.05 1245.48,-239.05 1245.48,-239.05 1200.7,-104.86 1180.92,-45.58"/>
<polygon fill="#6666ff" stroke="#6666ff" points="1184.23,-44.47 1177.75,-36.09 1177.59,-46.68 1184.23,-44.47"/>
</g>
<!-- Metamodel::ParametricRoleGroupHOW -->
<g id="node31" class="node">
<title>Metamodel::ParametricRoleGroupHOW</title>
<g id="a_node31"><a xlink:href="/type/Metamodel::ParametricRoleGroupHOW" xlink:title="Metamodel::ParametricRoleGroupHOW">
<ellipse fill="none" stroke="#000000" cx="1109.89" cy="-1496.22" rx="184.67" ry="18"/>
<text text-anchor="middle" x="1109.89" y="-1492.52" font-family="FreeSans" font-size="14.00" fill="#000000">Metamodel::ParametricRoleGroupHOW</text>
</a>
</g>
</g>
<!-- Metamodel::ParametricRoleGroupHOW&#45;&gt;Metamodel::Stashing -->
<g id="edge66" class="edge">
<title>Metamodel::ParametricRoleGroupHOW&#45;&gt;Metamodel::Stashing</title>
<path fill="none" stroke="#6666ff" d="M1105.03,-1477.97C1084.74,-1401.71 1007.76,-1112.51 1007.76,-1112.51 1007.76,-1112.51 1010.39,-1030.34 1010.39,-1030.34 1010.39,-1030.34 982.3,-1002.09 960.62,-980.29"/>
<polygon fill="#6666ff" stroke="#6666ff" points="963.1,-977.82 953.57,-973.19 958.14,-982.75 963.1,-977.82"/>
</g>
<!-- Metamodel::ParametricRoleGroupHOW&#45;&gt;Any -->
<g id="edge7" class="edge">
<title>Metamodel::ParametricRoleGroupHOW&#45;&gt;Any</title>
<path fill="none" stroke="#000000" d="M1106.47,-1477.97C1094.89,-1416.23 1057.14,-1214.86 1043.2,-1140.49"/>
<polygon fill="#000000" stroke="#000000" points="1046.6,-1139.66 1041.32,-1130.47 1039.72,-1140.95 1046.6,-1139.66"/>
</g>
<!-- Metamodel::ParametricRoleGroupHOW&#45;&gt;Metamodel::Naming -->
<g id="edge65" class="edge">
<title>Metamodel::ParametricRoleGroupHOW&#45;&gt;Metamodel::Naming</title>
<path fill="none" stroke="#6666ff" d="M1101.95,-1477.95C1070.79,-1406.24 956.74,-1143.74 919.35,-1057.71"/>
<polygon fill="#6666ff" stroke="#6666ff" points="922.48,-1056.12 915.28,-1048.34 916.06,-1058.91 922.48,-1056.12"/>
</g>
<!-- Metamodel::ParametricRoleGroupHOW&#45;&gt;Metamodel::BoolificationProtocol -->
<g id="edge69" class="edge">
<title>Metamodel::ParametricRoleGroupHOW&#45;&gt;Metamodel::BoolificationProtocol</title>
<path fill="none" stroke="#6666ff" d="M1124.91,-1478.02C1176.15,-1415.96 1344.16,-1212.44 1404.19,-1139.73"/>
<polygon fill="#6666ff" stroke="#6666ff" points="1406.97,-1141.86 1410.64,-1131.92 1401.57,-1137.4 1406.97,-1141.86"/>
</g>
<!-- Metamodel::ParametricRoleGroupHOW&#45;&gt;Metamodel::TypePretense -->
<g id="edge67" class="edge">
<title>Metamodel::ParametricRoleGroupHOW&#45;&gt;Metamodel::TypePretense</title>
<path fill="none" stroke="#6666ff" d="M1077.62,-1513.98C1030.14,-1540.12 941.48,-1588.92 889.59,-1617.49"/>
<polygon fill="#6666ff" stroke="#6666ff" points="887.73,-1614.52 880.65,-1622.41 891.1,-1620.65 887.73,-1614.52"/>
</g>
<!-- Metamodel::ParametricRoleGroupHOW&#45;&gt;Metamodel::RolePunning -->
<g id="edge68" class="edge">
<title>Metamodel::ParametricRoleGroupHOW&#45;&gt;Metamodel::RolePunning</title>
<path fill="none" stroke="#6666ff" d="M1130.39,-1514.23C1175.98,-1554.29 1285.79,-1650.78 1337.68,-1696.37"/>
<polygon fill="#6666ff" stroke="#6666ff" points="1335.67,-1699.26 1345.49,-1703.23 1340.29,-1694 1335.67,-1699.26"/>
</g>
<!-- Metamodel::ModuleHOW -->
<g id="node32" class="node">
<title>Metamodel::ModuleHOW</title>
<g id="a_node32"><a xlink:href="/type/Metamodel::ModuleHOW" xlink:title="Metamodel::ModuleHOW">
<ellipse fill="none" stroke="#000000" cx="617.9" cy="-1332.5" rx="122.38" ry="18"/>
<text text-anchor="middle" x="617.9" y="-1328.8" font-family="FreeSans" font-size="14.00" fill="#000000">Metamodel::ModuleHOW</text>
</a>
</g>
</g>
<!-- Metamodel::ModuleHOW&#45;&gt;Metamodel::Stashing -->
<g id="edge73" class="edge">
<title>Metamodel::ModuleHOW&#45;&gt;Metamodel::Stashing</title>
<path fill="none" stroke="#6666ff" d="M629.01,-1314.49C669.16,-1249.38 804.41,-1030.06 804.41,-1030.06 804.41,-1030.06 857.68,-999.84 896.42,-977.86"/>
<polygon fill="#6666ff" stroke="#6666ff" points="898.45,-980.73 905.42,-972.75 894.99,-974.64 898.45,-980.73"/>
</g>
<!-- Metamodel::ModuleHOW&#45;&gt;Any -->
<g id="edge8" class="edge">
<title>Metamodel::ModuleHOW&#45;&gt;Any</title>
<path fill="none" stroke="#000000" d="M651.21,-1315.06C730.49,-1273.55 929.48,-1169.36 1006.67,-1128.94"/>
<polygon fill="#000000" stroke="#000000" points="1008.65,-1131.86 1015.89,-1124.12 1005.4,-1125.66 1008.65,-1131.86"/>
</g>
<!-- Metamodel::ModuleHOW&#45;&gt;Metamodel::Naming -->
<g id="edge70" class="edge">
<title>Metamodel::ModuleHOW&#45;&gt;Metamodel::Naming</title>
<path fill="none" stroke="#6666ff" d="M635.15,-1314.5C684.42,-1263.04 825.98,-1115.22 883.08,-1055.59"/>
<polygon fill="#6666ff" stroke="#6666ff" points="885.86,-1057.76 890.25,-1048.11 880.8,-1052.91 885.86,-1057.76"/>
</g>
<!-- Metamodel::ModuleHOW&#45;&gt;Metamodel::Documenting -->
<g id="edge71" class="edge">
<title>Metamodel::ModuleHOW&#45;&gt;Metamodel::Documenting</title>
<path fill="none" stroke="#6666ff" d="M628.96,-1314.31C637.57,-1300.15 648.06,-1282.88 648.06,-1282.88 648.06,-1282.88 648.23,-1053.52 648.28,-972.07"/>
<polygon fill="#6666ff" stroke="#6666ff" points="651.78,-972.03 648.29,-962.03 644.78,-972.03 651.78,-972.03"/>
</g>
<!-- Metamodel::ModuleHOW&#45;&gt;Metamodel::TypePretense -->
<g id="edge74" class="edge">
<title>Metamodel::ModuleHOW&#45;&gt;Metamodel::TypePretense</title>
<path fill="none" stroke="#6666ff" d="M631.66,-1350.81C670.81,-1402.93 782.99,-1552.23 828.91,-1613.34"/>
<polygon fill="#6666ff" stroke="#6666ff" points="826.38,-1615.8 835.18,-1621.7 831.97,-1611.6 826.38,-1615.8"/>
</g>
<!-- Metamodel::ModuleHOW&#45;&gt;Metamodel::MethodDelegation -->
<g id="edge75" class="edge">
<title>Metamodel::ModuleHOW&#45;&gt;Metamodel::MethodDelegation</title>
<path fill="none" stroke="#6666ff" d="M572.44,-1349.25C486.05,-1381.08 298.43,-1450.21 204.35,-1484.87"/>
<polygon fill="#6666ff" stroke="#6666ff" points="202.89,-1481.67 194.72,-1488.42 205.31,-1488.24 202.89,-1481.67"/>
</g>
<!-- Metamodel::ModuleHOW&#45;&gt;Metamodel::Versioning -->
<g id="edge72" class="edge">
<title>Metamodel::ModuleHOW&#45;&gt;Metamodel::Versioning</title>
<path fill="none" stroke="#6666ff" d="M628.96,-1314.31C637.57,-1300.15 648.06,-1282.88 648.06,-1282.88 648.06,-1282.88 776.64,-943.91 776.64,-943.91 776.64,-943.91 746.04,-899.46 725.52,-869.67"/>
<polygon fill="#6666ff" stroke="#6666ff" points="728.34,-867.58 719.78,-861.33 722.57,-871.55 728.34,-867.58"/>
</g>
</g>
</svg>
