digraph "perl6-type-graph" {
    rankdir=BT;
    splines=polyline;
    overlap=false; 
    // Types
    "Metamodel::Documenting" [color="#6666FF", fontcolor="#6666FF", href="/type/Metamodel::Documenting", fontname="FreeSans"];
    "Mu" [color="#000000", fontcolor="#000000", href="/type/Mu", fontname="FreeSans"];
    "Any" [color="#000000", fontcolor="#000000", href="/type/Any", fontname="FreeSans"];
    "Metamodel::Naming" [color="#6666FF", fontcolor="#6666FF", href="/type/Metamodel::Naming", fontname="FreeSans"];
    "Metamodel::Stashing" [color="#6666FF", fontcolor="#6666FF", href="/type/Metamodel::Stashing", fontname="FreeSans"];
    "Metamodel::TypePretense" [color="#6666FF", fontcolor="#6666FF", href="/type/Metamodel::TypePretense", fontname="FreeSans"];
    "Metamodel::MethodDelegation" [color="#6666FF", fontcolor="#6666FF", href="/type/Metamodel::MethodDelegation", fontname="FreeSans"];
    "Metamodel::PackageHOW" [color="#000000", fontcolor="#000000", href="/type/Metamodel::PackageHOW", fontname="FreeSans"];
    "Metamodel::Versioning" [color="#6666FF", fontcolor="#6666FF", href="/type/Metamodel::Versioning", fontname="FreeSans"];
    "Metamodel::MultipleInheritance" [color="#6666FF", fontcolor="#6666FF", href="/type/Metamodel::MultipleInheritance", fontname="FreeSans"];
    "Metamodel::C3MRO" [color="#6666FF", fontcolor="#6666FF", href="/type/Metamodel::C3MRO", fontname="FreeSans"];
    "Metamodel::MROBasedMethodDispatch" [color="#6666FF", fontcolor="#6666FF", href="/type/Metamodel::MROBasedMethodDispatch", fontname="FreeSans"];
    "Metamodel::MROBasedTypeChecking" [color="#6666FF", fontcolor="#6666FF", href="/type/Metamodel::MROBasedTypeChecking", fontname="FreeSans"];
    "Metamodel::NativeHOW" [color="#000000", fontcolor="#000000", href="/type/Metamodel::NativeHOW", fontname="FreeSans"];
    "Metamodel::MethodContainer" [color="#6666FF", fontcolor="#6666FF", href="/type/Metamodel::MethodContainer", fontname="FreeSans"];
    "Metamodel::PrivateMethodContainer" [color="#6666FF", fontcolor="#6666FF", href="/type/Metamodel::PrivateMethodContainer", fontname="FreeSans"];
    "Metamodel::MultiMethodContainer" [color="#6666FF", fontcolor="#6666FF", href="/type/Metamodel::MultiMethodContainer", fontname="FreeSans"];
    "Metamodel::AttributeContainer" [color="#6666FF", fontcolor="#6666FF", href="/type/Metamodel::AttributeContainer", fontname="FreeSans"];
    "Metamodel::RoleContainer" [color="#6666FF", fontcolor="#6666FF", href="/type/Metamodel::RoleContainer", fontname="FreeSans"];
    "Metamodel::RolePunning" [color="#6666FF", fontcolor="#6666FF", href="/type/Metamodel::RolePunning", fontname="FreeSans"];
    "Metamodel::ParametricRoleHOW" [color="#000000", fontcolor="#000000", href="/type/Metamodel::ParametricRoleHOW", fontname="FreeSans"];
    "Metamodel::Finalization" [color="#6666FF", fontcolor="#6666FF", href="/type/Metamodel::Finalization", fontname="FreeSans"];
    "Metamodel::DefaultParent" [color="#6666FF", fontcolor="#6666FF", href="/type/Metamodel::DefaultParent", fontname="FreeSans"];
    "Metamodel::Trusting" [color="#6666FF", fontcolor="#6666FF", href="/type/Metamodel::Trusting", fontname="FreeSans"];
    "Metamodel::BUILDPLAN" [color="#6666FF", fontcolor="#6666FF", href="/type/Metamodel::BUILDPLAN", fontname="FreeSans"];
    "Metamodel::Mixins" [color="#6666FF", fontcolor="#6666FF", href="/type/Metamodel::Mixins", fontname="FreeSans"];
    "Metamodel::BoolificationProtocol" [color="#6666FF", fontcolor="#6666FF", href="/type/Metamodel::BoolificationProtocol", fontname="FreeSans"];
    "Metamodel::ClassHOW" [color="#000000", fontcolor="#000000", href="/type/Metamodel::ClassHOW", fontname="FreeSans"];
    "Metamodel::SubsetHOW" [color="#000000", fontcolor="#000000", href="/type/Metamodel::SubsetHOW", fontname="FreeSans"];
    "Metamodel::ModuleHOW" [color="#000000", fontcolor="#000000", href="/type/Metamodel::ModuleHOW", fontname="FreeSans"];

    // Superclasses
    "Any" -> "Mu" [color="#000000"];
    "Metamodel::PackageHOW" -> "Any" [color="#000000"];
    "Metamodel::NativeHOW" -> "Any" [color="#000000"];
    "Metamodel::ParametricRoleHOW" -> "Any" [color="#000000"];
    "Metamodel::ClassHOW" -> "Any" [color="#000000"];
    "Metamodel::SubsetHOW" -> "Any" [color="#000000"];
    "Metamodel::ModuleHOW" -> "Any" [color="#000000"];

    // Roles
    "Metamodel::PackageHOW" -> "Metamodel::Naming" [color="#6666FF"];
    "Metamodel::PackageHOW" -> "Metamodel::Documenting" [color="#6666FF"];
    "Metamodel::PackageHOW" -> "Metamodel::Stashing" [color="#6666FF"];
    "Metamodel::PackageHOW" -> "Metamodel::TypePretense" [color="#6666FF"];
    "Metamodel::PackageHOW" -> "Metamodel::MethodDelegation" [color="#6666FF"];
    "Metamodel::NativeHOW" -> "Metamodel::Naming" [color="#6666FF"];
    "Metamodel::NativeHOW" -> "Metamodel::Documenting" [color="#6666FF"];
    "Metamodel::NativeHOW" -> "Metamodel::Versioning" [color="#6666FF"];
    "Metamodel::NativeHOW" -> "Metamodel::Stashing" [color="#6666FF"];
    "Metamodel::NativeHOW" -> "Metamodel::MultipleInheritance" [color="#6666FF"];
    "Metamodel::NativeHOW" -> "Metamodel::C3MRO" [color="#6666FF"];
    "Metamodel::NativeHOW" -> "Metamodel::MROBasedMethodDispatch" [color="#6666FF"];
    "Metamodel::NativeHOW" -> "Metamodel::MROBasedTypeChecking" [color="#6666FF"];
    "Metamodel::ParametricRoleHOW" -> "Metamodel::Naming" [color="#6666FF"];
    "Metamodel::ParametricRoleHOW" -> "Metamodel::Documenting" [color="#6666FF"];
    "Metamodel::ParametricRoleHOW" -> "Metamodel::Versioning" [color="#6666FF"];
    "Metamodel::ParametricRoleHOW" -> "Metamodel::MethodContainer" [color="#6666FF"];
    "Metamodel::ParametricRoleHOW" -> "Metamodel::PrivateMethodContainer" [color="#6666FF"];
    "Metamodel::ParametricRoleHOW" -> "Metamodel::MultiMethodContainer" [color="#6666FF"];
    "Metamodel::ParametricRoleHOW" -> "Metamodel::AttributeContainer" [color="#6666FF"];
    "Metamodel::ParametricRoleHOW" -> "Metamodel::RoleContainer" [color="#6666FF"];
    "Metamodel::ParametricRoleHOW" -> "Metamodel::MultipleInheritance" [color="#6666FF"];
    "Metamodel::ParametricRoleHOW" -> "Metamodel::Stashing" [color="#6666FF"];
    "Metamodel::ParametricRoleHOW" -> "Metamodel::TypePretense" [color="#6666FF"];
    "Metamodel::ParametricRoleHOW" -> "Metamodel::RolePunning" [color="#6666FF"];
    "Metamodel::ClassHOW" -> "Metamodel::Naming" [color="#6666FF"];
    "Metamodel::ClassHOW" -> "Metamodel::Documenting" [color="#6666FF"];
    "Metamodel::ClassHOW" -> "Metamodel::Versioning" [color="#6666FF"];
    "Metamodel::ClassHOW" -> "Metamodel::Stashing" [color="#6666FF"];
    "Metamodel::ClassHOW" -> "Metamodel::AttributeContainer" [color="#6666FF"];
    "Metamodel::ClassHOW" -> "Metamodel::Finalization" [color="#6666FF"];
    "Metamodel::ClassHOW" -> "Metamodel::MethodContainer" [color="#6666FF"];
    "Metamodel::ClassHOW" -> "Metamodel::PrivateMethodContainer" [color="#6666FF"];
    "Metamodel::ClassHOW" -> "Metamodel::MultiMethodContainer" [color="#6666FF"];
    "Metamodel::ClassHOW" -> "Metamodel::RoleContainer" [color="#6666FF"];
    "Metamodel::ClassHOW" -> "Metamodel::MultipleInheritance" [color="#6666FF"];
    "Metamodel::ClassHOW" -> "Metamodel::DefaultParent" [color="#6666FF"];
    "Metamodel::ClassHOW" -> "Metamodel::C3MRO" [color="#6666FF"];
    "Metamodel::ClassHOW" -> "Metamodel::MROBasedMethodDispatch" [color="#6666FF"];
    "Metamodel::ClassHOW" -> "Metamodel::MROBasedTypeChecking" [color="#6666FF"];
    "Metamodel::ClassHOW" -> "Metamodel::Trusting" [color="#6666FF"];
    "Metamodel::ClassHOW" -> "Metamodel::BUILDPLAN" [color="#6666FF"];
    "Metamodel::ClassHOW" -> "Metamodel::Mixins" [color="#6666FF"];
    "Metamodel::ClassHOW" -> "Metamodel::BoolificationProtocol" [color="#6666FF"];
    "Metamodel::SubsetHOW" -> "Metamodel::Naming" [color="#6666FF"];
    "Metamodel::SubsetHOW" -> "Metamodel::Documenting" [color="#6666FF"];
    "Metamodel::ModuleHOW" -> "Metamodel::Naming" [color="#6666FF"];
    "Metamodel::ModuleHOW" -> "Metamodel::Documenting" [color="#6666FF"];
    "Metamodel::ModuleHOW" -> "Metamodel::Versioning" [color="#6666FF"];
    "Metamodel::ModuleHOW" -> "Metamodel::Stashing" [color="#6666FF"];
    "Metamodel::ModuleHOW" -> "Metamodel::TypePretense" [color="#6666FF"];
    "Metamodel::ModuleHOW" -> "Metamodel::MethodDelegation" [color="#6666FF"];
}
