<?xml version="1.0" encoding="UTF-8" standalone="no"?>
<!DOCTYPE svg PUBLIC "-//W3C//DTD SVG 1.1//EN"
 "http://www.w3.org/Graphics/SVG/1.1/DTD/svg11.dtd">
<!-- Generated by graphviz version 2.42.3 (0)
 -->
<!-- Title: perl6&#45;type&#45;graph Pages: 1 -->
<svg width="1550pt" height="332pt"
 viewBox="0.00 0.00 1550.49 332.00" xmlns="http://www.w3.org/2000/svg" xmlns:xlink="http://www.w3.org/1999/xlink">
<g id="graph0" class="graph" transform="scale(1 1) rotate(0) translate(4 328)">
<title>perl6&#45;type&#45;graph</title>
<polygon fill="white" stroke="transparent" points="-4,4 -4,-328 1546.49,-328 1546.49,4 -4,4"/>
<!-- Cool -->
<g id="node1" class="node">
<title>Cool</title>
<g id="a_node1"><a xlink:href="/type/Cool" xlink:title="Cool">
<ellipse fill="none" stroke="#000000" cx="714.95" cy="-162" rx="30.59" ry="18"/>
<text text-anchor="middle" x="714.95" y="-158.3" font-family="FreeSans" font-size="14.00" fill="#000000">Cool</text>
</a>
</g>
</g>
<!-- Any -->
<g id="node3" class="node">
<title>Any</title>
<g id="a_node3"><a xlink:href="/type/Any" xlink:title="Any">
<ellipse fill="none" stroke="#000000" cx="761.95" cy="-234" rx="28.7" ry="18"/>
<text text-anchor="middle" x="761.95" y="-230.3" font-family="FreeSans" font-size="14.00" fill="#000000">Any</text>
</a>
</g>
</g>
<!-- Cool&#45;&gt;Any -->
<g id="edge1" class="edge">
<title>Cool&#45;&gt;Any</title>
<path fill="none" stroke="#000000" d="M725.61,-178.88C731.5,-187.66 738.94,-198.74 745.55,-208.58"/>
<polygon fill="#000000" stroke="#000000" points="742.84,-210.83 751.32,-217.18 748.65,-206.93 742.84,-210.83"/>
</g>
<!-- Mu -->
<g id="node2" class="node">
<title>Mu</title>
<g id="a_node2"><a xlink:href="/type/Mu" xlink:title="Mu">
<ellipse fill="none" stroke="#000000" cx="761.95" cy="-306" rx="27" ry="18"/>
<text text-anchor="middle" x="761.95" y="-302.3" font-family="FreeSans" font-size="14.00" fill="#000000">Mu</text>
</a>
</g>
</g>
<!-- Any&#45;&gt;Mu -->
<g id="edge2" class="edge">
<title>Any&#45;&gt;Mu</title>
<path fill="none" stroke="#000000" d="M761.95,-252.3C761.95,-260.02 761.95,-269.29 761.95,-277.89"/>
<polygon fill="#000000" stroke="#000000" points="758.45,-277.9 761.95,-287.9 765.45,-277.9 758.45,-277.9"/>
</g>
<!-- IO -->
<g id="node4" class="node">
<title>IO</title>
<g id="a_node4"><a xlink:href="/type/IO" xlink:title="IO">
<ellipse fill="none" stroke="#6666ff" cx="530.95" cy="-162" rx="27" ry="18"/>
<text text-anchor="middle" x="530.95" y="-158.3" font-family="FreeSans" font-size="14.00" fill="#6666ff">IO</text>
</a>
</g>
</g>
<!-- IO::Path -->
<g id="node5" class="node">
<title>IO::Path</title>
<g id="a_node5"><a xlink:href="/type/IO::Path" xlink:title="IO::Path">
<ellipse fill="none" stroke="#000000" cx="414.95" cy="-90" rx="46.59" ry="18"/>
<text text-anchor="middle" x="414.95" y="-86.3" font-family="FreeSans" font-size="14.00" fill="#000000">IO::Path</text>
</a>
</g>
</g>
<!-- IO::Path&#45;&gt;Cool -->
<g id="edge3" class="edge">
<title>IO::Path&#45;&gt;Cool</title>
<path fill="none" stroke="#000000" d="M450.41,-101.77C461.52,-105.14 470.95,-108 470.95,-108 470.95,-108 607.71,-137.71 676.46,-152.64"/>
<polygon fill="#000000" stroke="#000000" points="675.96,-156.11 686.48,-154.82 677.45,-149.27 675.96,-156.11"/>
</g>
<!-- IO::Path&#45;&gt;IO -->
<g id="edge21" class="edge">
<title>IO::Path&#45;&gt;IO</title>
<path fill="none" stroke="#6666ff" d="M438.98,-105.5C457.54,-116.7 483.27,-132.23 502.79,-144.01"/>
<polygon fill="#6666ff" stroke="#6666ff" points="501.18,-147.13 511.55,-149.3 504.8,-141.13 501.18,-147.13"/>
</g>
<!-- Nil -->
<g id="node6" class="node">
<title>Nil</title>
<g id="a_node6"><a xlink:href="/type/Nil" xlink:title="Nil">
<ellipse fill="none" stroke="#000000" cx="688.95" cy="-90" rx="27" ry="18"/>
<text text-anchor="middle" x="688.95" y="-86.3" font-family="FreeSans" font-size="14.00" fill="#000000">Nil</text>
</a>
</g>
</g>
<!-- Nil&#45;&gt;Cool -->
<g id="edge4" class="edge">
<title>Nil&#45;&gt;Cool</title>
<path fill="none" stroke="#000000" d="M695.11,-107.59C698.11,-115.66 701.79,-125.57 705.16,-134.65"/>
<polygon fill="#000000" stroke="#000000" points="701.88,-135.89 708.65,-144.04 708.45,-133.45 701.88,-135.89"/>
</g>
<!-- Numeric -->
<g id="node7" class="node">
<title>Numeric</title>
<g id="a_node7"><a xlink:href="/type/Numeric" xlink:title="Numeric">
<ellipse fill="none" stroke="#6666ff" cx="1074.95" cy="-234" rx="48.99" ry="18"/>
<text text-anchor="middle" x="1074.95" y="-230.3" font-family="FreeSans" font-size="14.00" fill="#6666ff">Numeric</text>
</a>
</g>
</g>
<!-- Real -->
<g id="node8" class="node">
<title>Real</title>
<g id="a_node8"><a xlink:href="/type/Real" xlink:title="Real">
<ellipse fill="none" stroke="#6666ff" cx="1166.95" cy="-162" rx="30.59" ry="18"/>
<text text-anchor="middle" x="1166.95" y="-158.3" font-family="FreeSans" font-size="14.00" fill="#6666ff">Real</text>
</a>
</g>
</g>
<!-- Real&#45;&gt;Numeric -->
<g id="edge22" class="edge">
<title>Real&#45;&gt;Numeric</title>
<path fill="none" stroke="#6666ff" d="M1148.77,-176.83C1135.9,-186.62 1118.37,-199.96 1103.63,-211.17"/>
<polygon fill="#6666ff" stroke="#6666ff" points="1101.16,-208.65 1095.33,-217.49 1105.4,-214.22 1101.16,-208.65"/>
</g>
<!-- Instant -->
<g id="node9" class="node">
<title>Instant</title>
<g id="a_node9"><a xlink:href="/type/Instant" xlink:title="Instant">
<ellipse fill="none" stroke="#000000" cx="1298.95" cy="-90" rx="42.49" ry="18"/>
<text text-anchor="middle" x="1298.95" y="-86.3" font-family="FreeSans" font-size="14.00" fill="#000000">Instant</text>
</a>
</g>
</g>
<!-- Instant&#45;&gt;Cool -->
<g id="edge5" class="edge">
<title>Instant&#45;&gt;Cool</title>
<path fill="none" stroke="#000000" d="M1266.31,-101.67C1255.86,-105.09 1246.95,-108 1246.95,-108 1246.95,-108 754.95,-144 754.95,-144 754.95,-144 752.34,-145.11 748.46,-146.75"/>
<polygon fill="#000000" stroke="#000000" points="746.97,-143.59 739.14,-150.72 749.71,-150.03 746.97,-143.59"/>
</g>
<!-- Instant&#45;&gt;Real -->
<g id="edge23" class="edge">
<title>Instant&#45;&gt;Real</title>
<path fill="none" stroke="#6666ff" d="M1273.49,-104.5C1251.9,-115.95 1220.84,-132.42 1197.83,-144.62"/>
<polygon fill="#6666ff" stroke="#6666ff" points="1196.01,-141.62 1188.82,-149.4 1199.29,-147.81 1196.01,-141.62"/>
</g>
<!-- Rational -->
<g id="node10" class="node">
<title>Rational</title>
<g id="a_node10"><a xlink:href="/type/Rational" xlink:title="Rational">
<ellipse fill="none" stroke="#6666ff" cx="1406.95" cy="-90" rx="47.39" ry="18"/>
<text text-anchor="middle" x="1406.95" y="-86.3" font-family="FreeSans" font-size="14.00" fill="#6666ff">Rational</text>
</a>
</g>
</g>
<!-- Rational&#45;&gt;Real -->
<g id="edge24" class="edge">
<title>Rational&#45;&gt;Real</title>
<path fill="none" stroke="#6666ff" d="M1370.85,-101.77C1359.53,-105.14 1349.95,-108 1349.95,-108 1349.95,-108 1257.19,-134.86 1203.75,-150.34"/>
<polygon fill="#6666ff" stroke="#6666ff" points="1202.58,-147.04 1193.95,-153.18 1204.53,-153.76 1202.58,-147.04"/>
</g>
<!-- Rat -->
<g id="node11" class="node">
<title>Rat</title>
<g id="a_node11"><a xlink:href="/type/Rat" xlink:title="Rat">
<ellipse fill="none" stroke="#000000" cx="1074.95" cy="-18" rx="27" ry="18"/>
<text text-anchor="middle" x="1074.95" y="-14.3" font-family="FreeSans" font-size="14.00" fill="#000000">Rat</text>
</a>
</g>
</g>
<!-- Rat&#45;&gt;Cool -->
<g id="edge6" class="edge">
<title>Rat&#45;&gt;Cool</title>
<path fill="none" stroke="#000000" d="M1051.51,-27.3C1039.32,-31.62 1026.95,-36 1026.95,-36 1026.95,-36 762.95,-72 762.95,-72 762.95,-72 742.85,-109.27 728.66,-135.57"/>
<polygon fill="#000000" stroke="#000000" points="725.42,-134.21 723.75,-144.68 731.58,-137.54 725.42,-134.21"/>
</g>
<!-- Rat&#45;&gt;Rational -->
<g id="edge25" class="edge">
<title>Rat&#45;&gt;Rational</title>
<path fill="none" stroke="#6666ff" d="M1100.82,-23.99C1169.27,-37.18 1349.95,-72 1349.95,-72 1349.95,-72 1354.48,-73.35 1360.99,-75.29"/>
<polygon fill="#6666ff" stroke="#6666ff" points="1360.26,-78.73 1370.85,-78.23 1362.26,-72.02 1360.26,-78.73"/>
</g>
<!-- Iterable -->
<g id="node12" class="node">
<title>Iterable</title>
<g id="a_node12"><a xlink:href="/type/Iterable" xlink:title="Iterable">
<ellipse fill="none" stroke="#6666ff" cx="170.95" cy="-162" rx="45.49" ry="18"/>
<text text-anchor="middle" x="170.95" y="-158.3" font-family="FreeSans" font-size="14.00" fill="#6666ff">Iterable</text>
</a>
</g>
</g>
<!-- Associative -->
<g id="node13" class="node">
<title>Associative</title>
<g id="a_node13"><a xlink:href="/type/Associative" xlink:title="Associative">
<ellipse fill="none" stroke="#6666ff" cx="295.95" cy="-162" rx="61.99" ry="18"/>
<text text-anchor="middle" x="295.95" y="-158.3" font-family="FreeSans" font-size="14.00" fill="#6666ff">Associative</text>
</a>
</g>
</g>
<!-- Map -->
<g id="node14" class="node">
<title>Map</title>
<g id="a_node14"><a xlink:href="/type/Map" xlink:title="Map">
<ellipse fill="none" stroke="#000000" cx="245.95" cy="-90" rx="29.8" ry="18"/>
<text text-anchor="middle" x="245.95" y="-86.3" font-family="FreeSans" font-size="14.00" fill="#000000">Map</text>
</a>
</g>
</g>
<!-- Map&#45;&gt;Cool -->
<g id="edge7" class="edge">
<title>Map&#45;&gt;Cool</title>
<path fill="none" stroke="#000000" d="M269.53,-101.28C277.74,-104.86 284.95,-108 284.95,-108 284.95,-108 569.01,-143.01 675.37,-156.12"/>
<polygon fill="#000000" stroke="#000000" points="675.04,-159.61 685.39,-157.36 675.89,-152.66 675.04,-159.61"/>
</g>
<!-- Map&#45;&gt;Iterable -->
<g id="edge26" class="edge">
<title>Map&#45;&gt;Iterable</title>
<path fill="none" stroke="#6666ff" d="M230.41,-105.5C220.37,-114.87 207.08,-127.27 195.62,-137.97"/>
<polygon fill="#6666ff" stroke="#6666ff" points="192.96,-135.67 188.03,-145.05 197.73,-140.79 192.96,-135.67"/>
</g>
<!-- Map&#45;&gt;Associative -->
<g id="edge27" class="edge">
<title>Map&#45;&gt;Associative</title>
<path fill="none" stroke="#6666ff" d="M257.29,-106.88C263.44,-115.49 271.18,-126.33 278.12,-136.04"/>
<polygon fill="#6666ff" stroke="#6666ff" points="275.29,-138.1 283.95,-144.2 280.98,-134.03 275.29,-138.1"/>
</g>
<!-- Stringy -->
<g id="node15" class="node">
<title>Stringy</title>
<g id="a_node15"><a xlink:href="/type/Stringy" xlink:title="Stringy">
<ellipse fill="none" stroke="#6666ff" cx="1498.95" cy="-162" rx="43.59" ry="18"/>
<text text-anchor="middle" x="1498.95" y="-158.3" font-family="FreeSans" font-size="14.00" fill="#6666ff">Stringy</text>
</a>
</g>
</g>
<!-- Str -->
<g id="node16" class="node">
<title>Str</title>
<g id="a_node16"><a xlink:href="/type/Str" xlink:title="Str">
<ellipse fill="none" stroke="#000000" cx="1498.95" cy="-90" rx="27" ry="18"/>
<text text-anchor="middle" x="1498.95" y="-86.3" font-family="FreeSans" font-size="14.00" fill="#000000">Str</text>
</a>
</g>
</g>
<!-- Str&#45;&gt;Cool -->
<g id="edge8" class="edge">
<title>Str&#45;&gt;Cool</title>
<path fill="none" stroke="#000000" d="M1477.59,-101.09C1469.84,-104.75 1462.95,-108 1462.95,-108 1462.95,-108 754.95,-144 754.95,-144 754.95,-144 752.34,-145.11 748.46,-146.75"/>
<polygon fill="#000000" stroke="#000000" points="746.97,-143.59 739.14,-150.72 749.71,-150.03 746.97,-143.59"/>
</g>
<!-- Str&#45;&gt;Stringy -->
<g id="edge28" class="edge">
<title>Str&#45;&gt;Stringy</title>
<path fill="none" stroke="#6666ff" d="M1498.95,-108.3C1498.95,-116.02 1498.95,-125.29 1498.95,-133.89"/>
<polygon fill="#6666ff" stroke="#6666ff" points="1495.45,-133.9 1498.95,-143.9 1502.45,-133.9 1495.45,-133.9"/>
</g>
<!-- Positional -->
<g id="node17" class="node">
<title>Positional</title>
<g id="a_node17"><a xlink:href="/type/Positional" xlink:title="Positional">
<ellipse fill="none" stroke="#6666ff" cx="53.95" cy="-162" rx="53.89" ry="18"/>
<text text-anchor="middle" x="53.95" y="-158.3" font-family="FreeSans" font-size="14.00" fill="#6666ff">Positional</text>
</a>
</g>
</g>
<!-- List -->
<g id="node18" class="node">
<title>List</title>
<g id="a_node18"><a xlink:href="/type/List" xlink:title="List">
<ellipse fill="none" stroke="#000000" cx="170.95" cy="-90" rx="27" ry="18"/>
<text text-anchor="middle" x="170.95" y="-86.3" font-family="FreeSans" font-size="14.00" fill="#000000">List</text>
</a>
</g>
</g>
<!-- List&#45;&gt;Cool -->
<g id="edge9" class="edge">
<title>List&#45;&gt;Cool</title>
<path fill="none" stroke="#000000" d="M192.3,-101.09C200.05,-104.75 206.95,-108 206.95,-108 206.95,-108 566.95,-144 566.95,-144 566.95,-144 631.06,-151.36 674.89,-156.4"/>
<polygon fill="#000000" stroke="#000000" points="674.66,-159.9 685,-157.56 675.46,-152.94 674.66,-159.9"/>
</g>
<!-- List&#45;&gt;Iterable -->
<g id="edge30" class="edge">
<title>List&#45;&gt;Iterable</title>
<path fill="none" stroke="#6666ff" d="M170.95,-108.3C170.95,-116.02 170.95,-125.29 170.95,-133.89"/>
<polygon fill="#6666ff" stroke="#6666ff" points="167.45,-133.9 170.95,-143.9 174.45,-133.9 167.45,-133.9"/>
</g>
<!-- List&#45;&gt;Positional -->
<g id="edge29" class="edge">
<title>List&#45;&gt;Positional</title>
<path fill="none" stroke="#6666ff" d="M151.36,-102.72C134.14,-113.02 108.67,-128.26 88.09,-140.57"/>
<polygon fill="#6666ff" stroke="#6666ff" points="86.11,-137.68 79.32,-145.82 89.7,-143.69 86.11,-137.68"/>
</g>
<!-- FatRat -->
<g id="node19" class="node">
<title>FatRat</title>
<g id="a_node19"><a xlink:href="/type/FatRat" xlink:title="FatRat">
<ellipse fill="none" stroke="#000000" cx="977.95" cy="-18" rx="39.79" ry="18"/>
<text text-anchor="middle" x="977.95" y="-14.3" font-family="FreeSans" font-size="14.00" fill="#000000">FatRat</text>
</a>
</g>
</g>
<!-- FatRat&#45;&gt;Cool -->
<g id="edge10" class="edge">
<title>FatRat&#45;&gt;Cool</title>
<path fill="none" stroke="#000000" d="M941.3,-24.98C856.3,-38.84 652.95,-72 652.95,-72 652.95,-72 652.95,-108 652.95,-108 652.95,-108 673.26,-125.37 690.64,-140.22"/>
<polygon fill="#000000" stroke="#000000" points="688.45,-142.96 698.33,-146.8 693,-137.64 688.45,-142.96"/>
</g>
<!-- FatRat&#45;&gt;Rational -->
<g id="edge31" class="edge">
<title>FatRat&#45;&gt;Rational</title>
<path fill="none" stroke="#6666ff" d="M1010.94,-28.2C1025.32,-32.2 1038.95,-36 1038.95,-36 1038.95,-36 1349.95,-72 1349.95,-72 1349.95,-72 1354.48,-73.35 1360.99,-75.29"/>
<polygon fill="#6666ff" stroke="#6666ff" points="1360.26,-78.73 1370.85,-78.23 1362.26,-72.02 1360.26,-78.73"/>
</g>
<!-- PositionalBindFailover -->
<g id="node20" class="node">
<title>PositionalBindFailover</title>
<g id="a_node20"><a xlink:href="/type/PositionalBindFailover" xlink:title="PositionalBindFailover">
<ellipse fill="none" stroke="#6666ff" cx="430.95" cy="-234" rx="109.38" ry="18"/>
<text text-anchor="middle" x="430.95" y="-230.3" font-family="FreeSans" font-size="14.00" fill="#6666ff">PositionalBindFailover</text>
</a>
</g>
</g>
<!-- Sequence -->
<g id="node21" class="node">
<title>Sequence</title>
<g id="a_node21"><a xlink:href="/type/Sequence" xlink:title="Sequence">
<ellipse fill="none" stroke="#6666ff" cx="430.95" cy="-162" rx="55.49" ry="18"/>
<text text-anchor="middle" x="430.95" y="-158.3" font-family="FreeSans" font-size="14.00" fill="#6666ff">Sequence</text>
</a>
</g>
</g>
<!-- Sequence&#45;&gt;PositionalBindFailover -->
<g id="edge32" class="edge">
<title>Sequence&#45;&gt;PositionalBindFailover</title>
<path fill="none" stroke="#6666ff" d="M430.95,-180.3C430.95,-188.02 430.95,-197.29 430.95,-205.89"/>
<polygon fill="#6666ff" stroke="#6666ff" points="427.45,-205.9 430.95,-215.9 434.45,-205.9 427.45,-205.9"/>
</g>
<!-- Seq -->
<g id="node22" class="node">
<title>Seq</title>
<g id="a_node22"><a xlink:href="/type/Seq" xlink:title="Seq">
<ellipse fill="none" stroke="#000000" cx="321.95" cy="-90" rx="27.9" ry="18"/>
<text text-anchor="middle" x="321.95" y="-86.3" font-family="FreeSans" font-size="14.00" fill="#000000">Seq</text>
</a>
</g>
</g>
<!-- Seq&#45;&gt;Cool -->
<g id="edge11" class="edge">
<title>Seq&#45;&gt;Cool</title>
<path fill="none" stroke="#000000" d="M344.32,-101.28C352.11,-104.86 358.95,-108 358.95,-108 358.95,-108 582.64,-141.3 675.39,-155.11"/>
<polygon fill="#000000" stroke="#000000" points="675.1,-158.61 685.51,-156.62 676.13,-151.68 675.1,-158.61"/>
</g>
<!-- Seq&#45;&gt;Iterable -->
<g id="edge33" class="edge">
<title>Seq&#45;&gt;Iterable</title>
<path fill="none" stroke="#6666ff" d="M299.99,-101.18C276.1,-112.25 237.49,-130.15 208.72,-143.49"/>
<polygon fill="#6666ff" stroke="#6666ff" points="206.97,-140.44 199.37,-147.82 209.92,-146.79 206.97,-140.44"/>
</g>
<!-- Seq&#45;&gt;Sequence -->
<g id="edge34" class="edge">
<title>Seq&#45;&gt;Sequence</title>
<path fill="none" stroke="#6666ff" d="M341.18,-103.35C357.01,-113.52 379.79,-128.15 398.44,-140.13"/>
<polygon fill="#6666ff" stroke="#6666ff" points="396.65,-143.13 406.95,-145.59 400.43,-137.24 396.65,-143.13"/>
</g>
<!-- StrDistance -->
<g id="node23" class="node">
<title>StrDistance</title>
<g id="a_node23"><a xlink:href="/type/StrDistance" xlink:title="StrDistance">
<ellipse fill="none" stroke="#000000" cx="542.95" cy="-90" rx="63.09" ry="18"/>
<text text-anchor="middle" x="542.95" y="-86.3" font-family="FreeSans" font-size="14.00" fill="#000000">StrDistance</text>
</a>
</g>
</g>
<!-- StrDistance&#45;&gt;Cool -->
<g id="edge12" class="edge">
<title>StrDistance&#45;&gt;Cool</title>
<path fill="none" stroke="#000000" d="M577.75,-105.17C607.83,-117.4 651.03,-134.99 680.88,-147.14"/>
<polygon fill="#000000" stroke="#000000" points="679.88,-150.51 690.46,-151.03 682.52,-144.02 679.88,-150.51"/>
</g>
<!-- Capture -->
<g id="node24" class="node">
<title>Capture</title>
<g id="a_node24"><a xlink:href="/type/Capture" xlink:title="Capture">
<ellipse fill="none" stroke="#000000" cx="809.95" cy="-162" rx="46.29" ry="18"/>
<text text-anchor="middle" x="809.95" y="-158.3" font-family="FreeSans" font-size="14.00" fill="#000000">Capture</text>
</a>
</g>
</g>
<!-- Capture&#45;&gt;Any -->
<g id="edge13" class="edge">
<title>Capture&#45;&gt;Any</title>
<path fill="none" stroke="#000000" d="M798.57,-179.59C792.63,-188.26 785.24,-199.03 778.66,-208.62"/>
<polygon fill="#000000" stroke="#000000" points="775.68,-206.79 772.91,-217.01 781.45,-210.74 775.68,-206.79"/>
</g>
<!-- Match -->
<g id="node25" class="node">
<title>Match</title>
<g id="a_node25"><a xlink:href="/type/Match" xlink:title="Match">
<ellipse fill="none" stroke="#000000" cx="809.95" cy="-90" rx="38.19" ry="18"/>
<text text-anchor="middle" x="809.95" y="-86.3" font-family="FreeSans" font-size="14.00" fill="#000000">Match</text>
</a>
</g>
</g>
<!-- Match&#45;&gt;Cool -->
<g id="edge15" class="edge">
<title>Match&#45;&gt;Cool</title>
<path fill="none" stroke="#000000" d="M790.26,-105.5C776.14,-115.91 756.95,-130.05 741.47,-141.45"/>
<polygon fill="#000000" stroke="#000000" points="739.29,-138.71 733.31,-147.46 743.44,-144.35 739.29,-138.71"/>
</g>
<!-- Match&#45;&gt;Capture -->
<g id="edge14" class="edge">
<title>Match&#45;&gt;Capture</title>
<path fill="none" stroke="#000000" d="M809.95,-108.3C809.95,-116.02 809.95,-125.29 809.95,-133.89"/>
<polygon fill="#000000" stroke="#000000" points="806.45,-133.9 809.95,-143.9 813.45,-133.9 806.45,-133.9"/>
</g>
<!-- Duration -->
<g id="node26" class="node">
<title>Duration</title>
<g id="a_node26"><a xlink:href="/type/Duration" xlink:title="Duration">
<ellipse fill="none" stroke="#000000" cx="1033.95" cy="-90" rx="50.09" ry="18"/>
<text text-anchor="middle" x="1033.95" y="-86.3" font-family="FreeSans" font-size="14.00" fill="#000000">Duration</text>
</a>
</g>
</g>
<!-- Duration&#45;&gt;Cool -->
<g id="edge16" class="edge">
<title>Duration&#45;&gt;Cool</title>
<path fill="none" stroke="#000000" d="M996.25,-101.86C984.68,-105.19 974.95,-108 974.95,-108 974.95,-108 754.95,-144 754.95,-144 754.95,-144 752.34,-145.11 748.46,-146.75"/>
<polygon fill="#000000" stroke="#000000" points="746.97,-143.59 739.14,-150.72 749.71,-150.03 746.97,-143.59"/>
</g>
<!-- Duration&#45;&gt;Real -->
<g id="edge35" class="edge">
<title>Duration&#45;&gt;Real</title>
<path fill="none" stroke="#6666ff" d="M1061.18,-105.33C1082.96,-116.8 1113.48,-132.86 1136.15,-144.79"/>
<polygon fill="#6666ff" stroke="#6666ff" points="1134.54,-147.9 1145.02,-149.46 1137.8,-141.71 1134.54,-147.9"/>
</g>
<!-- Range -->
<g id="node27" class="node">
<title>Range</title>
<g id="a_node27"><a xlink:href="/type/Range" xlink:title="Range">
<ellipse fill="none" stroke="#000000" cx="85.95" cy="-90" rx="39.79" ry="18"/>
<text text-anchor="middle" x="85.95" y="-86.3" font-family="FreeSans" font-size="14.00" fill="#000000">Range</text>
</a>
</g>
</g>
<!-- Range&#45;&gt;Cool -->
<g id="edge17" class="edge">
<title>Range&#45;&gt;Cool</title>
<path fill="none" stroke="#000000" d="M116.42,-101.57C126.39,-105.03 134.95,-108 134.95,-108 134.95,-108 566.95,-144 566.95,-144 566.95,-144 631.06,-151.36 674.89,-156.4"/>
<polygon fill="#000000" stroke="#000000" points="674.66,-159.9 685,-157.56 675.46,-152.94 674.66,-159.9"/>
</g>
<!-- Range&#45;&gt;Iterable -->
<g id="edge37" class="edge">
<title>Range&#45;&gt;Iterable</title>
<path fill="none" stroke="#6666ff" d="M104.39,-106.19C116.03,-115.78 131.27,-128.33 144.23,-139"/>
<polygon fill="#6666ff" stroke="#6666ff" points="142,-141.7 151.95,-145.36 146.45,-136.3 142,-141.7"/>
</g>
<!-- Range&#45;&gt;Positional -->
<g id="edge36" class="edge">
<title>Range&#45;&gt;Positional</title>
<path fill="none" stroke="#6666ff" d="M78.2,-107.95C74.56,-115.91 70.13,-125.59 66.06,-134.49"/>
<polygon fill="#6666ff" stroke="#6666ff" points="62.82,-133.17 61.84,-143.72 69.18,-136.09 62.82,-133.17"/>
</g>
<!-- Complex -->
<g id="node28" class="node">
<title>Complex</title>
<g id="a_node28"><a xlink:href="/type/Complex" xlink:title="Complex">
<ellipse fill="none" stroke="#000000" cx="915.95" cy="-90" rx="50.09" ry="18"/>
<text text-anchor="middle" x="915.95" y="-86.3" font-family="FreeSans" font-size="14.00" fill="#000000">Complex</text>
</a>
</g>
</g>
<!-- Complex&#45;&gt;Cool -->
<g id="edge18" class="edge">
<title>Complex&#45;&gt;Cool</title>
<path fill="none" stroke="#000000" d="M880.21,-102.76C832.78,-118.38 754.95,-144 754.95,-144 754.95,-144 752.34,-145.11 748.46,-146.75"/>
<polygon fill="#000000" stroke="#000000" points="746.97,-143.59 739.14,-150.72 749.71,-150.03 746.97,-143.59"/>
</g>
<!-- Complex&#45;&gt;Numeric -->
<g id="edge38" class="edge">
<title>Complex&#45;&gt;Numeric</title>
<path fill="none" stroke="#6666ff" d="M933.88,-107.01C962.03,-132.15 1016.72,-181 1049.11,-209.93"/>
<polygon fill="#6666ff" stroke="#6666ff" points="1047.05,-212.78 1056.84,-216.83 1051.71,-207.56 1047.05,-212.78"/>
</g>
<!-- Int -->
<g id="node29" class="node">
<title>Int</title>
<g id="a_node29"><a xlink:href="/type/Int" xlink:title="Int">
<ellipse fill="none" stroke="#000000" cx="1128.95" cy="-90" rx="27" ry="18"/>
<text text-anchor="middle" x="1128.95" y="-86.3" font-family="FreeSans" font-size="14.00" fill="#000000">Int</text>
</a>
</g>
</g>
<!-- Int&#45;&gt;Cool -->
<g id="edge19" class="edge">
<title>Int&#45;&gt;Cool</title>
<path fill="none" stroke="#000000" d="M1107.59,-101.09C1099.84,-104.75 1092.95,-108 1092.95,-108 1092.95,-108 754.95,-144 754.95,-144 754.95,-144 752.34,-145.11 748.46,-146.75"/>
<polygon fill="#000000" stroke="#000000" points="746.97,-143.59 739.14,-150.72 749.71,-150.03 746.97,-143.59"/>
</g>
<!-- Int&#45;&gt;Real -->
<g id="edge39" class="edge">
<title>Int&#45;&gt;Real</title>
<path fill="none" stroke="#6666ff" d="M1137.76,-107.24C1142.3,-115.6 1147.94,-125.98 1153.04,-135.39"/>
<polygon fill="#6666ff" stroke="#6666ff" points="1150.07,-137.25 1157.92,-144.37 1156.22,-133.91 1150.07,-137.25"/>
</g>
<!-- Num -->
<g id="node30" class="node">
<title>Num</title>
<g id="a_node30"><a xlink:href="/type/Num" xlink:title="Num">
<ellipse fill="none" stroke="#000000" cx="1205.95" cy="-90" rx="32.49" ry="18"/>
<text text-anchor="middle" x="1205.95" y="-86.3" font-family="FreeSans" font-size="14.00" fill="#000000">Num</text>
</a>
</g>
</g>
<!-- Num&#45;&gt;Cool -->
<g id="edge20" class="edge">
<title>Num&#45;&gt;Cool</title>
<path fill="none" stroke="#000000" d="M1180.68,-101.48C1172.24,-104.97 1164.95,-108 1164.95,-108 1164.95,-108 754.95,-144 754.95,-144 754.95,-144 752.34,-145.11 748.46,-146.75"/>
<polygon fill="#000000" stroke="#000000" points="746.97,-143.59 739.14,-150.72 749.71,-150.03 746.97,-143.59"/>
</g>
<!-- Num&#45;&gt;Real -->
<g id="edge40" class="edge">
<title>Num&#45;&gt;Real</title>
<path fill="none" stroke="#6666ff" d="M1196.7,-107.59C1192.04,-115.96 1186.28,-126.29 1181.08,-135.63"/>
<polygon fill="#6666ff" stroke="#6666ff" points="1177.93,-134.09 1176.12,-144.53 1184.05,-137.5 1177.93,-134.09"/>
</g>
</g>
</svg>
