<?xml version="1.0" encoding="UTF-8" standalone="no"?>
<!DOCTYPE svg PUBLIC "-//W3C//DTD SVG 1.1//EN"
 "http://www.w3.org/Graphics/SVG/1.1/DTD/svg11.dtd">
<!-- Generated by graphviz version 2.42.3 (0)
 -->
<!-- Title: perl6&#45;type&#45;graph Pages: 1 -->
<svg width="879pt" height="580pt"
 viewBox="0.00 0.00 879.08 580.08" xmlns="http://www.w3.org/2000/svg" xmlns:xlink="http://www.w3.org/1999/xlink">
<g id="graph0" class="graph" transform="scale(1 1) rotate(0) translate(4 576.08)">
<title>perl6&#45;type&#45;graph</title>
<polygon fill="white" stroke="transparent" points="-4,4 -4,-576.08 875.08,-576.08 875.08,4 -4,4"/>
<!-- Metamodel::MethodDelegation -->
<g id="node1" class="node">
<title>Metamodel::MethodDelegation</title>
<g id="a_node1"><a xlink:href="/type/Metamodel::MethodDelegation" xlink:title="Metamodel::MethodDelegation">
<ellipse fill="none" stroke="#6666ff" cx="148.19" cy="-321.65" rx="148.37" ry="18"/>
<text text-anchor="middle" x="148.19" y="-317.95" font-family="FreeSans" font-size="14.00" fill="#6666ff">Metamodel::MethodDelegation</text>
</a>
</g>
</g>
<!-- Mu -->
<g id="node2" class="node">
<title>Mu</title>
<g id="a_node2"><a xlink:href="/type/Mu" xlink:title="Mu">
<ellipse fill="none" stroke="#000000" cx="844.08" cy="-18" rx="27" ry="18"/>
<text text-anchor="middle" x="844.08" y="-14.3" font-family="FreeSans" font-size="14.00" fill="#000000">Mu</text>
</a>
</g>
</g>
<!-- Any -->
<g id="node3" class="node">
<title>Any</title>
<g id="a_node3"><a xlink:href="/type/Any" xlink:title="Any">
<ellipse fill="none" stroke="#000000" cx="618.86" cy="-140.59" rx="28.7" ry="18"/>
<text text-anchor="middle" x="618.86" y="-136.89" font-family="FreeSans" font-size="14.00" fill="#000000">Any</text>
</a>
</g>
</g>
<!-- Any&#45;&gt;Mu -->
<g id="edge1" class="edge">
<title>Any&#45;&gt;Mu</title>
<path fill="none" stroke="#000000" d="M640.86,-128.61C681.46,-106.52 768.16,-59.33 814.09,-34.32"/>
<polygon fill="#000000" stroke="#000000" points="815.87,-37.34 822.98,-29.49 812.52,-31.2 815.87,-37.34"/>
</g>
<!-- Metamodel::Naming -->
<g id="node4" class="node">
<title>Metamodel::Naming</title>
<g id="a_node4"><a xlink:href="/type/Metamodel::Naming" xlink:title="Metamodel::Naming">
<ellipse fill="none" stroke="#6666ff" cx="442.12" cy="-554.08" rx="101.28" ry="18"/>
<text text-anchor="middle" x="442.12" y="-550.38" font-family="FreeSans" font-size="14.00" fill="#6666ff">Metamodel::Naming</text>
</a>
</g>
</g>
<!-- Metamodel::Documenting -->
<g id="node5" class="node">
<title>Metamodel::Documenting</title>
<g id="a_node5"><a xlink:href="/type/Metamodel::Documenting" xlink:title="Metamodel::Documenting">
<ellipse fill="none" stroke="#6666ff" cx="630.08" cy="-421.14" rx="126.98" ry="18"/>
<text text-anchor="middle" x="630.08" y="-417.44" font-family="FreeSans" font-size="14.00" fill="#6666ff">Metamodel::Documenting</text>
</a>
</g>
</g>
<!-- Metamodel::Stashing -->
<g id="node6" class="node">
<title>Metamodel::Stashing</title>
<g id="a_node6"><a xlink:href="/type/Metamodel::Stashing" xlink:title="Metamodel::Stashing">
<ellipse fill="none" stroke="#6666ff" cx="241.84" cy="-498.07" rx="105.88" ry="18"/>
<text text-anchor="middle" x="241.84" y="-494.37" font-family="FreeSans" font-size="14.00" fill="#6666ff">Metamodel::Stashing</text>
</a>
</g>
</g>
<!-- Metamodel::TypePretense -->
<g id="node7" class="node">
<title>Metamodel::TypePretense</title>
<g id="a_node7"><a xlink:href="/type/Metamodel::TypePretense" xlink:title="Metamodel::TypePretense">
<ellipse fill="none" stroke="#6666ff" cx="390.63" cy="-42.05" rx="126.18" ry="18"/>
<text text-anchor="middle" x="390.63" y="-38.35" font-family="FreeSans" font-size="14.00" fill="#6666ff">Metamodel::TypePretense</text>
</a>
</g>
</g>
<!-- Metamodel::PackageHOW -->
<g id="node8" class="node">
<title>Metamodel::PackageHOW</title>
<g id="a_node8"><a xlink:href="/type/Metamodel::PackageHOW" xlink:title="Metamodel::PackageHOW">
<ellipse fill="none" stroke="#000000" cx="445.38" cy="-328.29" rx="126.98" ry="18"/>
<text text-anchor="middle" x="445.38" y="-324.59" font-family="FreeSans" font-size="14.00" fill="#000000">Metamodel::PackageHOW</text>
</a>
</g>
</g>
<!-- Metamodel::PackageHOW&#45;&gt;Metamodel::MethodDelegation -->
<g id="edge8" class="edge">
<title>Metamodel::PackageHOW&#45;&gt;Metamodel::MethodDelegation</title>
<path fill="none" stroke="#6666ff" d="M319.77,-325.48C314.79,-325.37 309.77,-325.26 304.73,-325.15"/>
<polygon fill="#6666ff" stroke="#6666ff" points="304.47,-321.64 294.39,-324.92 304.31,-328.64 304.47,-321.64"/>
</g>
<!-- Metamodel::PackageHOW&#45;&gt;Any -->
<g id="edge2" class="edge">
<title>Metamodel::PackageHOW&#45;&gt;Any</title>
<path fill="none" stroke="#000000" d="M462.01,-310.29C493.6,-276.11 562.25,-201.84 597.31,-163.91"/>
<polygon fill="#000000" stroke="#000000" points="600.04,-166.11 604.25,-156.39 594.9,-161.36 600.04,-166.11"/>
</g>
<!-- Metamodel::PackageHOW&#45;&gt;Metamodel::Naming -->
<g id="edge4" class="edge">
<title>Metamodel::PackageHOW&#45;&gt;Metamodel::Naming</title>
<path fill="none" stroke="#6666ff" d="M445.11,-346.39C444.55,-385.61 443.2,-478.71 442.52,-525.78"/>
<polygon fill="#6666ff" stroke="#6666ff" points="439.02,-525.85 442.38,-535.9 446.02,-525.95 439.02,-525.85"/>
</g>
<!-- Metamodel::PackageHOW&#45;&gt;Metamodel::Documenting -->
<g id="edge5" class="edge">
<title>Metamodel::PackageHOW&#45;&gt;Metamodel::Documenting</title>
<path fill="none" stroke="#6666ff" d="M480.12,-345.75C510.17,-360.86 553.78,-382.78 586.23,-399.1"/>
<polygon fill="#6666ff" stroke="#6666ff" points="584.98,-402.39 595.49,-403.75 588.13,-396.13 584.98,-402.39"/>
</g>
<!-- Metamodel::PackageHOW&#45;&gt;Metamodel::Stashing -->
<g id="edge6" class="edge">
<title>Metamodel::PackageHOW&#45;&gt;Metamodel::Stashing</title>
<path fill="none" stroke="#6666ff" d="M423.98,-346.14C387.33,-376.71 312.51,-439.13 271.08,-473.69"/>
<polygon fill="#6666ff" stroke="#6666ff" points="268.7,-471.12 263.26,-480.21 273.18,-476.49 268.7,-471.12"/>
</g>
<!-- Metamodel::PackageHOW&#45;&gt;Metamodel::TypePretense -->
<g id="edge7" class="edge">
<title>Metamodel::PackageHOW&#45;&gt;Metamodel::TypePretense</title>
<path fill="none" stroke="#6666ff" d="M458.96,-310.3C472.83,-291.92 492.34,-266.07 492.34,-266.07 492.34,-266.07 430.34,-129.51 403.15,-69.63"/>
<polygon fill="#6666ff" stroke="#6666ff" points="406.27,-68.04 398.95,-60.38 399.9,-70.93 406.27,-68.04"/>
</g>
<!-- Metamodel::Versioning -->
<g id="node9" class="node">
<title>Metamodel::Versioning</title>
<g id="a_node9"><a xlink:href="/type/Metamodel::Versioning" xlink:title="Metamodel::Versioning">
<ellipse fill="none" stroke="#6666ff" cx="142.12" cy="-70.49" rx="114.28" ry="18"/>
<text text-anchor="middle" x="142.12" y="-66.79" font-family="FreeSans" font-size="14.00" fill="#6666ff">Metamodel::Versioning</text>
</a>
</g>
</g>
<!-- Metamodel::ModuleHOW -->
<g id="node10" class="node">
<title>Metamodel::ModuleHOW</title>
<g id="a_node10"><a xlink:href="/type/Metamodel::ModuleHOW" xlink:title="Metamodel::ModuleHOW">
<ellipse fill="none" stroke="#000000" cx="368.55" cy="-265.9" rx="122.38" ry="18"/>
<text text-anchor="middle" x="368.55" y="-262.2" font-family="FreeSans" font-size="14.00" fill="#000000">Metamodel::ModuleHOW</text>
</a>
</g>
</g>
<!-- Metamodel::ModuleHOW&#45;&gt;Metamodel::MethodDelegation -->
<g id="edge14" class="edge">
<title>Metamodel::ModuleHOW&#45;&gt;Metamodel::MethodDelegation</title>
<path fill="none" stroke="#6666ff" d="M306.88,-281.5C280.68,-288.13 249.91,-295.91 222.48,-302.85"/>
<polygon fill="#6666ff" stroke="#6666ff" points="221.37,-299.52 212.54,-305.37 223.09,-306.31 221.37,-299.52"/>
</g>
<!-- Metamodel::ModuleHOW&#45;&gt;Any -->
<g id="edge3" class="edge">
<title>Metamodel::ModuleHOW&#45;&gt;Any</title>
<path fill="none" stroke="#000000" d="M403.09,-248.61C451.78,-224.23 539.88,-180.13 587.04,-156.52"/>
<polygon fill="#000000" stroke="#000000" points="588.8,-159.55 596.18,-151.95 585.67,-153.29 588.8,-159.55"/>
</g>
<!-- Metamodel::ModuleHOW&#45;&gt;Metamodel::Naming -->
<g id="edge9" class="edge">
<title>Metamodel::ModuleHOW&#45;&gt;Metamodel::Naming</title>
<path fill="none" stroke="#6666ff" d="M353.65,-283.91C338.44,-302.3 317.04,-328.17 317.04,-328.17 317.04,-328.17 393.96,-467.11 427.16,-527.07"/>
<polygon fill="#6666ff" stroke="#6666ff" points="424.19,-528.92 432.09,-535.98 430.31,-525.53 424.19,-528.92"/>
</g>
<!-- Metamodel::ModuleHOW&#45;&gt;Metamodel::Documenting -->
<g id="edge10" class="edge">
<title>Metamodel::ModuleHOW&#45;&gt;Metamodel::Documenting</title>
<path fill="none" stroke="#6666ff" d="M424.06,-281.95C473.03,-296.11 536.66,-314.51 536.66,-314.51 536.66,-314.51 573.71,-328.41 573.71,-328.41 573.71,-328.41 596.96,-366.66 613.6,-394.02"/>
<polygon fill="#6666ff" stroke="#6666ff" points="610.76,-396.09 618.94,-402.82 616.74,-392.45 610.76,-396.09"/>
</g>
<!-- Metamodel::ModuleHOW&#45;&gt;Metamodel::Stashing -->
<g id="edge12" class="edge">
<title>Metamodel::ModuleHOW&#45;&gt;Metamodel::Stashing</title>
<path fill="none" stroke="#6666ff" d="M353.65,-283.91C338.44,-302.3 317.04,-328.17 317.04,-328.17 317.04,-328.17 275.25,-422.6 253.97,-470.67"/>
<polygon fill="#6666ff" stroke="#6666ff" points="250.74,-469.33 249.89,-479.89 257.14,-472.16 250.74,-469.33"/>
</g>
<!-- Metamodel::ModuleHOW&#45;&gt;Metamodel::TypePretense -->
<g id="edge13" class="edge">
<title>Metamodel::ModuleHOW&#45;&gt;Metamodel::TypePretense</title>
<path fill="none" stroke="#6666ff" d="M370.36,-247.58C374.21,-208.54 383.24,-116.92 387.84,-70.33"/>
<polygon fill="#6666ff" stroke="#6666ff" points="391.33,-70.6 388.83,-60.31 384.36,-69.91 391.33,-70.6"/>
</g>
<!-- Metamodel::ModuleHOW&#45;&gt;Metamodel::Versioning -->
<g id="edge11" class="edge">
<title>Metamodel::ModuleHOW&#45;&gt;Metamodel::Versioning</title>
<path fill="none" stroke="#6666ff" d="M347.66,-247.86C306.96,-212.75 217.04,-135.14 170.8,-95.25"/>
<polygon fill="#6666ff" stroke="#6666ff" points="172.83,-92.37 162.97,-88.48 168.25,-97.67 172.83,-92.37"/>
</g>
</g>
</svg>
